Key   0 is 
Key   1 is 
Key   2 is 
Key   3 is 
Key   4 is A
Key   5 is B
Key   6 is C
Key   7 is D
Key   8 is E
Key   9 is F
Key  10 is G
Key  11 is H
Key  12 is I
Key  13 is J
Key  14 is K
Key  15 is L
Key  16 is M
Key  17 is N
Key  18 is O
Key  19 is P
Key  20 is Q
Key  21 is R
Key  22 is S
Key  23 is T
Key  24 is U
Key  25 is V
Key  26 is W
Key  27 is X
Key  28 is Y
Key  29 is Z
Key  30 is 1
Key  31 is 2
Key  32 is 3
Key  33 is 4
Key  34 is 5
Key  35 is 6
Key  36 is 7
Key  37 is 8
Key  38 is 9
Key  39 is 0
Key  40 is Return
Key  41 is Escape
Key  42 is Backspace
Key  43 is Tab
Key  44 is Space
Key  45 is Minus
Key  46 is Equals
Key  47 is LBrace
Key  48 is RBrace
Key  49 is Backslash
Key  50 is #
Key  51 is Semicolon
Key  52 is Quote
Key  53 is Tilde
Key  54 is Comma
Key  55 is Period
Key  56 is Slash
Key  57 is CapsLock
Key  58 is F1
Key  59 is F2
Key  60 is F3
Key  61 is F4
Key  62 is F5
Key  63 is F6
Key  64 is F7
Key  65 is F8
Key  66 is F9
Key  67 is F10
Key  68 is F11
Key  69 is F12
Key  70 is PrintScreen
Key  71 is ScrollLock
Key  72 is Pause
Key  73 is Insert
Key  74 is Home
Key  75 is PageUp
Key  76 is Delete
Key  77 is End
Key  78 is PageDown
Key  79 is Right
Key  80 is Left
Key  81 is Down
Key  82 is Up
Key  83 is Numlock
Key  84 is Keypad /
Key  85 is Keypad *
Key  86 is Keypad -
Key  87 is Keypad +
Key  88 is Keypad Enter
Key  89 is Keypad 1
Key  90 is Keypad 2
Key  91 is Keypad 3
Key  92 is Keypad 4
Key  93 is Keypad 5
Key  94 is Keypad 6
Key  95 is Keypad 7
Key  96 is Keypad 8
Key  97 is Keypad 9
Key  98 is Keypad 0
Key  99 is Keypad .
Key 100 is 
Key 101 is Menu
Key 102 is Power
Key 103 is Keypad =
Key 104 is F13
Key 105 is F14
Key 106 is F15
Key 107 is F16
Key 108 is F17
Key 109 is F18
Key 110 is F19
Key 111 is F20
Key 112 is F21
Key 113 is F22
Key 114 is F23
Key 115 is F24
Key 116 is Execute
Key 117 is Help
Key 118 is Menu
Key 119 is Select
Key 120 is Stop
Key 121 is Again
Key 122 is Undo
Key 123 is Cut
Key 124 is Copy
Key 125 is Paste
Key 126 is Find
Key 127 is Mute
Key 128 is VolumeUp
Key 129 is VolumeDown
Key 130 is 
Key 131 is 
Key 132 is 
Key 133 is Keypad ,
Key 134 is Keypad = (AS400)
Key 135 is 
Key 136 is 
Key 137 is 
Key 138 is 
Key 139 is 
Key 140 is 
Key 141 is 
Key 142 is 
Key 143 is 
Key 144 is 
Key 145 is 
Key 146 is 
Key 147 is 
Key 148 is 
Key 149 is 
Key 150 is 
Key 151 is 
Key 152 is 
Key 153 is AltErase
Key 154 is SysReq
Key 155 is Cancel
Key 156 is Clear
Key 157 is Prior
Key 158 is Return
Key 159 is Separator
Key 160 is Out
Key 161 is Oper
Key 162 is Clear / Again
Key 163 is CrSel
Key 164 is ExSel
Key 165 is 
Key 166 is 
Key 167 is 
Key 168 is 
Key 169 is 
Key 170 is 
Key 171 is 
Key 172 is 
Key 173 is 
Key 174 is 
Key 175 is 
Key 176 is Keypad 00
Key 177 is Keypad 000
Key 178 is ThousandsSeparator
Key 179 is DecimalSeparator
Key 180 is CurrencyUnit
Key 181 is CurrencySubUnit
Key 182 is Keypad (
Key 183 is Keypad )
Key 184 is Keypad {
Key 185 is Keypad }
Key 186 is Keypad Tab
Key 187 is Keypad Backspace
Key 188 is Keypad A
Key 189 is Keypad B
Key 190 is Keypad C
Key 191 is Keypad D
Key 192 is Keypad E
Key 193 is Keypad F
Key 194 is Keypad XOR
Key 195 is Keypad ^
Key 196 is Keypad %
Key 197 is Keypad <
Key 198 is Keypad >
Key 199 is Keypad &
Key 200 is Keypad &&
Key 201 is Keypad |
Key 202 is Keypad ||
Key 203 is Keypad :
Key 204 is Keypad #
Key 205 is Keypad Space
Key 206 is Keypad @
Key 207 is Keypad !
Key 208 is Keypad MemStore
Key 209 is Keypad MemRecall
Key 210 is Keypad MemClear
Key 211 is Keypad MemAdd
Key 212 is Keypad MemSubtract
Key 213 is Keypad MemMultiply
Key 214 is Keypad MemDivide
Key 215 is Keypad +/-
Key 216 is Keypad Clear
Key 217 is Keypad ClearEntry
Key 218 is Keypad Binary
Key 219 is Keypad Octal
Key 220 is Keypad Decimal
Key 221 is Keypad Hexadecimal
Key 222 is 
Key 223 is 
Key 224 is LCtrl
Key 225 is LShift
Key 226 is Left Alt
Key 227 is Left Windows
Key 228 is RCtrl
Key 229 is RShift
Key 230 is Right Alt
Key 231 is Right Windows
Key 232 is 
Key 233 is 
Key 234 is 
Key 235 is 
Key 236 is 
Key 237 is 
Key 238 is 
Key 239 is 
Key 240 is 
Key 241 is 
Key 242 is 
Key 243 is 
Key 244 is 
Key 245 is 
Key 246 is 
Key 247 is 
Key 248 is 
Key 249 is 
Key 250 is 
Key 251 is 
Key 252 is 
Key 253 is 
Key 254 is 
Key 255 is 
Key 256 is 
Key 257 is ModeSwitch
Key 258 is AudioNext
Key 259 is AudioPrev
Key 260 is AudioStop
Key 261 is AudioPlay
Key 262 is AudioMute
Key 263 is MediaSelect
Key 264 is WWW
Key 265 is Mail
Key 266 is Calculator
Key 267 is Computer
Key 268 is AC Search
Key 269 is AC Home
Key 270 is AC Back
Key 271 is AC Forward
Key 272 is AC Stop
Key 273 is AC Refresh
Key 274 is AC Bookmarks
Key 275 is BrightnessDown
Key 276 is BrightnessUp
Key 277 is DisplaySwitch
Key 278 is KBDIllumToggle
Key 279 is KBDIllumDown
Key 280 is KBDIllumUp
Key 281 is Eject
Key 282 is Sleep
Key 283 is App1
Key 284 is App2
Key 285 is AudioRewind
Key 286 is AudioFastForward
Key 287 is 
Key 288 is 
Key 289 is 
Key 290 is 
Key 291 is 
Key 292 is 
Key 293 is 
Key 294 is 
Key 295 is 
Key 296 is 
Key 297 is 
Key 298 is 
Key 299 is 
Key 300 is 
Key 301 is 
Key 302 is 
Key 303 is 
Key 304 is 
Key 305 is 
Key 306 is 
Key 307 is 
Key 308 is 
Key 309 is 
Key 310 is 
Key 311 is 
Key 312 is 
Key 313 is 
Key 314 is 
Key 315 is 
Key 316 is 
Key 317 is 
Key 318 is 
Key 319 is 
Key 320 is 
Key 321 is 
Key 322 is 
Key 323 is 
Key 324 is 
Key 325 is 
Key 326 is 
Key 327 is 
Key 328 is 
Key 329 is 
Key 330 is 
Key 331 is 
Key 332 is 
Key 333 is 
Key 334 is 
Key 335 is 
Key 336 is 
Key 337 is 
Key 338 is 
Key 339 is 
Key 340 is 
Key 341 is 
Key 342 is 
Key 343 is 
Key 344 is 
Key 345 is 
Key 346 is 
Key 347 is 
Key 348 is 
Key 349 is 
Key 350 is 
Key 351 is 
Key 352 is 
Key 353 is 
Key 354 is 
Key 355 is 
Key 356 is 
Key 357 is 
Key 358 is 
Key 359 is 
Key 360 is 
Key 361 is 
Key 362 is 
Key 363 is 
Key 364 is 
Key 365 is 
Key 366 is 
Key 367 is 
Key 368 is 
Key 369 is 
Key 370 is 
Key 371 is 
Key 372 is 
Key 373 is 
Key 374 is 
Key 375 is 
Key 376 is 
Key 377 is 
Key 378 is 
Key 379 is 
Key 380 is 
Key 381 is 
Key 382 is 
Key 383 is 
Key 384 is 
Key 385 is 
Key 386 is 
Key 387 is 
Key 388 is 
Key 389 is 
Key 390 is 
Key 391 is 
Key 392 is 
Key 393 is 
Key 394 is 
Key 395 is 
Key 396 is 
Key 397 is 
Key 398 is 
Key 399 is 
Key 400 is 
Key 401 is 
Key 402 is 
Key 403 is 
Key 404 is 
Key 405 is 
Key 406 is 
Key 407 is 
Key 408 is 
Key 409 is 
Key 410 is 
Key 411 is 
Key 412 is 
Key 413 is 
Key 414 is 
Key 415 is 
Key 416 is 
Key 417 is 
Key 418 is 
Key 419 is 
Key 420 is 
Key 421 is 
Key 422 is 
Key 423 is 
Key 424 is 
Key 425 is 
Key 426 is 
Key 427 is 
Key 428 is 
Key 429 is 
Key 430 is 
Key 431 is 
Key 432 is 
Key 433 is 
Key 434 is 
Key 435 is 
Key 436 is 
Key 437 is 
Key 438 is 
Key 439 is 
Key 440 is 
Key 441 is 
Key 442 is 
Key 443 is 
Key 444 is 
Key 445 is 
Key 446 is 
Key 447 is 
Key 448 is 
Key 449 is 
Key 450 is 
Key 451 is 
Key 452 is 
Key 453 is 
Key 454 is 
Key 455 is 
Key 456 is 
Key 457 is 
Key 458 is 
Key 459 is 
Key 460 is 
Key 461 is 
Key 462 is 
Key 463 is 
Key 464 is 
Key 465 is 
Key 466 is 
Key 467 is 
Key 468 is 
Key 469 is 
Key 470 is 
Key 471 is 
Key 472 is 
Key 473 is 
Key 474 is 
Key 475 is 
Key 476 is 
Key 477 is 
Key 478 is 
Key 479 is 
Key 480 is 
Key 481 is 
Key 482 is 
Key 483 is 
Key 484 is 
Key 485 is 
Key 486 is 
Key 487 is 
Key 488 is 
Key 489 is 
Key 490 is 
Key 491 is 
Key 492 is 
Key 493 is 
Key 494 is 
Key 495 is 
Key 496 is 
Key 497 is 
Key 498 is 
Key 499 is 
Key 500 is 
Key 501 is 
Key 502 is 
Key 503 is 
Key 504 is 
Key 505 is 
Key 506 is 
Key 507 is 
Key 508 is 
Key 509 is 
Key 510 is 
Key 511 is 
