Namespace: XPC
 Empty group: 0 to 8
 Empty group: 12 to 13
 Empty group: 15 to 15
 Empty group: 18 to 19
 Empty group: 29 to 30
 Empty group: 32 to 40
 Empty group: 42 to 48
 Empty group: 51 to 55
 Empty group: 67 to 72
 Empty group: 74 to 74
 Empty group: 79 to 80
 Empty group: 82 to 83
 Empty group: 88 to 88
 Empty group: 92 to 94
 Empty group: 96 to 96
 Empty group: 102 to 107
 Empty group: 113 to 120
 Empty group: 122 to 126
 Empty group: 128 to 134
 Empty group: 136 to 136
 Empty group: 138 to 139
 Empty group: 141 to 142
 Empty group: 144 to 147
 Empty group: 149 to 152
 Empty group: 154 to 154
 Empty group: 161 to 162
 Empty group: 165 to 167
 Empty group: 171 to 171
 Empty group: 174 to 174
 Empty group: 176 to 177
 Empty group: 180 to 180
 Empty group: 185 to 185
 Empty group: 187 to 188
 Empty group: 191 to 191
 Empty group: 195 to 195
 Empty group: 197 to 197
 Empty group: 202 to 203
 Empty group: 205 to 205
 Empty group: 214 to 214
 Empty group: 216 to 216
 Empty group: 219 to 219
 Empty group: 224 to 225
 Empty group: 230 to 231
 Empty group: 234 to 235
 Empty group: 238 to 238
 Empty group: 240 to 241
 Empty group: 246 to 246
 Empty group: 253 to 254
 Empty group: 258 to 259
 Empty group: 264 to 264
 Empty group: 268 to 269
 Empty group: 274 to 274
 Empty group: 286 to 287
 Empty group: 297 to 297
 Empty group: 299 to 300
 Empty group: 306 to 306
 Empty group: 312 to 312
 Empty group: 319 to 319
 Empty group: 326 to 327
 Empty group: 332 to 333
 Empty group: 337 to 337
 Empty group: 347 to 347
 Empty group: 364 to 364
 Empty group: 368 to 368
 Empty group: 372 to 372
 Empty group: 385 to 385
 Empty group: 394 to 394
 Empty group: 398 to 398
 Empty group: 402 to 402
 Empty group: 404 to 404
 Empty group: 410 to 410
 Empty group: 419 to 419
 Empty group: 442 to 443
 Empty group: 465 to 465
 Empty group: 475 to 477
 Empty group: 492 to 492
 Empty group: 505 to 507
 Empty group: 509 to 509
 Empty group: 511 to 511
 Empty group: 525 to 525
 Empty group: 533 to 533
 Empty group: 537 to 537
 Empty group: 541 to 542
 Empty group: 549 to 549
 Empty group: 554 to 555
 Empty group: 561 to 561
 Empty group: 565 to 565
 Empty group: 567 to 567
 Empty group: 570 to 571
 Empty group: 627 to 627
 Empty group: 630 to 630
 Empty group: 636 to 636
 Empty group: 644 to 649
 Empty group: 656 to 657
 Empty group: 661 to 661
 Empty group: 665 to 665
 Empty group: 668 to 668
 Empty group: 675 to 678
 Empty group: 680 to 680
 Empty group: 687 to 687
 Empty group: 693 to 693
 Empty group: 701 to 701
 Empty group: 706 to 706
 Empty group: 709 to 709
 Empty group: 716 to 717
 Empty group: 720 to 720
 Empty group: 738 to 738
 Empty group: 743 to 743
 Empty group: 745 to 749
 Empty group: 753 to 753
 Empty group: 755 to 758
 Empty group: 761 to 761
 Empty group: 764 to 764
 Empty group: 767 to 767
 Empty group: 770 to 771
 Empty group: 773 to 773
 Empty group: 775 to 781
 Empty group: 783 to 785
 Empty group: 789 to 795
 Empty group: 800 to 803
 Empty group: 806 to 810
 Empty group: 812 to 813
 Empty group: 820 to 820
 Empty group: 824 to 825
 Empty group: 828 to 832
 Empty group: 834 to 836
 Empty group: 838 to 840
 Empty group: 843 to 843
 Empty group: 845 to 849
 Empty group: 852 to 856
 Empty group: 859 to 860
 Empty group: 862 to 864
 Empty group: 866 to 867
 Empty group: 870 to 874
 Empty group: 877 to 877
 Empty group: 880 to 881
 Empty group: 884 to 886
 Empty group: 889 to 892
 Empty group: 894 to 894
 Empty group: 896 to 901
 Empty group: 903 to 906
 Empty group: 910 to 911
 Empty group: 913 to 916
 Empty group: 919 to 920
 Empty group: 922 to 924
 Empty group: 927 to 930
 Empty group: 932 to 932
 Empty group: 935 to 935
 Empty group: 937 to 940
 Empty group: 944 to 946
 Empty group: 948 to 951
 Empty group: 956 to 957
 Empty group: 964 to 964
 Empty group: 972 to 972
 Empty group: 975 to 976
 Empty group: 978 to 978
 Empty group: 980 to 983
 Empty group: 985 to 985
 Empty group: 988 to 989
 Empty group: 991 to 992
 Empty group: 995 to 995
 Empty group: 997 to 997
 Empty group: 1001 to 1002
 Empty group: 1008 to 1008
 Empty group: 1011 to 1012
 Empty group: 1014 to 1015
 Empty group: 1017 to 1021
 Empty group: 1024 to 1025
 Empty group: 1027 to 1027
 Empty group: 1029 to 1037
 Empty group: 1039 to 1040
 Empty group: 1042 to 1048
 Empty group: 1050 to 1066
 Empty group: 1068 to 1070
 Empty group: 1072 to 1074
 Empty group: 1076 to 1080
 Empty group: 1083 to 1091
 Empty group: 1093 to 1093
 Empty group: 1095 to 1100
 Empty group: 1102 to 1104
 Empty group: 1106 to 1107
 Empty group: 1109 to 1109
 Empty group: 1111 to 1116
 Empty group: 1119 to 1120
 Empty group: 1127 to 1132
 Empty group: 1136 to 1141
 Empty group: 1143 to 1143
 Empty group: 1150 to 1150
 Empty group: 1152 to 1157
 Empty group: 1159 to 1162
 Empty group: 1164 to 1164
 Empty group: 1166 to 1166
 Empty group: 1170 to 1170
 Empty group: 1174 to 1174
 Empty group: 1176 to 1181
 Empty group: 1183 to 1184
 Empty group: 1186 to 1200
 Empty group: 1202 to 1204
 Empty group: 1206 to 1228
 Empty group: 1231 to 1233
 Empty group: 1236 to 1237
 Empty group: 1240 to 1243
 Empty group: 1245 to 1246
 Empty group: 1248 to 1248
 Empty group: 1251 to 1252
 Empty group: 1254 to 1254
 Empty group: 1256 to 1261
 Empty group: 1265 to 1266
 Empty group: 1268 to 1269
 Empty group: 1271 to 1273
 Empty group: 1277 to 1277
 Empty group: 1280 to 1286
 Empty group: 1289 to 1295
 Empty group: 1299 to 1301
 Empty group: 1304 to 1305
 Empty group: 1307 to 1307
 Empty group: 1312 to 1312
 Empty group: 1314 to 1319
 Empty group: 1321 to 1322
 Empty group: 1327 to 1330
 Empty group: 1333 to 1336
 Empty group: 1339 to 1343
 Empty group: 1348 to 1348
 Empty group: 1350 to 1350
 Empty group: 1352 to 1360
 Empty group: 1364 to 1365
 Empty group: 1367 to 1368
 Empty group: 1372 to 1372
 Empty group: 1374 to 1377
 Empty group: 1379 to 1381
 Empty group: 1383 to 1383
 Empty group: 1385 to 1389
 Empty group: 1392 to 1394
 Empty group: 1396 to 1407
 Empty group: 1412 to 1426
 Empty group: 1428 to 1431
 Empty group: 1434 to 1434
 Empty group: 1436 to 1441
 Empty group: 1443 to 1444
 Empty group: 1446 to 1447
 Empty group: 1449 to 1454
 Empty group: 1456 to 1456
 Empty group: 1458 to 1463
 Empty group: 1465 to 1468
 Empty group: 1471 to 1474
 Empty group: 1476 to 1484
 Empty group: 1487 to 1488
 Empty group: 1490 to 1490
 Empty group: 1492 to 1510
 Empty group: 1514 to 1514
 Empty group: 1516 to 1516
 Empty group: 1519 to 1520
 Empty group: 1522 to 1522
 Empty group: 1524 to 1528
 Empty group: 1530 to 1530
 Empty group: 1532 to 1536
 Empty group: 1539 to 1539
 Empty group: 1541 to 1552
 Empty group: 1555 to 1555
 Empty group: 1557 to 1560
 Empty group: 1562 to 1562
 Empty group: 1564 to 1569
 Empty group: 1571 to 1571
 Empty group: 1573 to 1575
 Empty group: 1577 to 1577
 Empty group: 1580 to 1587
 Empty group: 1589 to 1594
 Empty group: 1596 to 1596
 Empty group: 1599 to 1600
 Empty group: 1602 to 1603
 Empty group: 1605 to 1605
 Empty group: 1607 to 1608
 Empty group: 1611 to 1611
 Empty group: 1613 to 1615
 Empty group: 1617 to 1618
 Empty group: 1621 to 1622
 Empty group: 1624 to 1625
 Empty group: 1627 to 1627
 Empty group: 1629 to 1632
 Empty group: 1634 to 1634
 Empty group: 1636 to 1637
 Empty group: 1641 to 1641
 Empty group: 1643 to 1643
 Empty group: 1648 to 1649
 Empty group: 1651 to 1651
 Empty group: 1653 to 1655
 Empty group: 1657 to 1657
 Empty group: 1659 to 1660
 Empty group: 1664 to 1664
 Empty group: 1666 to 1666
 Empty group: 1668 to 1668
 Empty group: 1670 to 1670
 Empty group: 1672 to 1672
 Empty group: 1674 to 1674
 Empty group: 1676 to 1678
 Empty group: 1680 to 1682
 Empty group: 1684 to 1685
 Empty group: 1687 to 1689
 Empty group: 1691 to 1691
 Empty group: 1695 to 1701
 Empty group: 1703 to 1703
 Empty group: 1706 to 1706
 Empty group: 1709 to 1709
 Empty group: 1714 to 1714
 Empty group: 1716 to 1716
 Empty group: 1718 to 1718
 Empty group: 1721 to 1721
 Empty group: 1725 to 1727
 Empty group: 1729 to 1729
 Empty group: 1734 to 1734
 Empty group: 1736 to 1736
 Empty group: 1740 to 1742
 Empty group: 1747 to 1748
 Empty group: 1751 to 1754
 Empty group: 1756 to 1760
 Empty group: 1763 to 1763
 Empty group: 1765 to 1765
 Empty group: 1767 to 1769
 Empty group: 1771 to 1771
 Empty group: 1774 to 1775
 Empty group: 1779 to 1786
 Empty group: 1790 to 1791
 Empty group: 1793 to 1793
 Empty group: 1796 to 1797
 Empty group: 1800 to 1801
 Empty group: 1804 to 1805
 Empty group: 1808 to 1810
 Empty group: 1812 to 1812
 Empty group: 1816 to 1817
 Empty group: 1821 to 1821
 Empty group: 1823 to 1823
 Empty group: 1825 to 1825
 Empty group: 1827 to 1827
 Empty group: 1829 to 1829
 Empty group: 1831 to 1831
 Empty group: 1833 to 1833
 Empty group: 1835 to 1835
 Empty group: 1837 to 1838
 Empty group: 1840 to 1841
 Empty group: 1844 to 1844
 Empty group: 1846 to 1846
 Empty group: 1849 to 1849
 Empty group: 1852 to 1853
 Empty group: 1855 to 1858
 Empty group: 1860 to 1864
 Empty group: 1867 to 1868
 Empty group: 1871 to 1873
 Empty group: 1875 to 1875
 Empty group: 1878 to 1883
 Empty group: 1885 to 1885
 Empty group: 1889 to 1891
 Empty group: 1895 to 1895
 Empty group: 1898 to 1898
 Empty group: 1904 to 1904
 Empty group: 1909 to 1909
 Empty group: 1911 to 1911
 Empty group: 1916 to 1916
 Empty group: 1919 to 1920
 Empty group: 1926 to 1929
 Empty group: 1931 to 1932
 Empty group: 1935 to 1936
 Empty group: 1938 to 1938
 Empty group: 1942 to 1942
 Empty group: 1944 to 1946
 Empty group: 1949 to 1955
 Empty group: 1961 to 1961
 Empty group: 1964 to 1964
 Empty group: 1966 to 1966
 Empty group: 1968 to 1973
 Empty group: 1977 to 1980
 Empty group: 1984 to 1984
 Empty group: 1986 to 1987
 Empty group: 1989 to 1989
 Empty group: 1992 to 1992
 Empty group: 1994 to 1994
 Empty group: 1996 to 2000
 Empty group: 2002 to 2002
 Empty group: 2006 to 2006
 Empty group: 2008 to 2009
 Empty group: 2013 to 2013
 Empty group: 2015 to 2015
 Empty group: 2017 to 2017
 Empty group: 2019 to 2019
 Empty group: 2021 to 2021
 Empty group: 2024 to 2034
 Empty group: 2037 to 2044
 Empty group: 2046 to 2055
 Empty group: 2057 to 2058
 Empty group: 2061 to 2062
 Empty group: 2064 to 2064
 Empty group: 2067 to 2071
 Empty group: 2074 to 2075
 Empty group: 2077 to 2083
 Empty group: 2085 to 2086
 Empty group: 2089 to 2090
 Empty group: 2092 to 2095
 Empty group: 2097 to 2097
 Empty group: 2101 to 2103
 Empty group: 2105 to 2106
 Empty group: 2110 to 2111
 Empty group: 2116 to 2116
 Empty group: 2118 to 2120
 Empty group: 2124 to 2140
 Empty group: 2142 to 2150
 Empty group: 2152 to 2152
 Empty group: 2154 to 2174
 Empty group: 2176 to 2176
 Empty group: 2178 to 2183
 Empty group: 2185 to 2186
 Empty group: 2188 to 2238
 Empty group: 2240 to 2274
 Empty group: 2276 to 2285
 Empty group: 2287 to 2287
 Empty group: 2289 to 2320
 Empty group: 2322 to 2333
 Empty group: 2335 to 2353
 Empty group: 2355 to 2370
 Empty group: 2372 to 2373
 Empty group: 2375 to 2380
 Empty group: 2382 to 2400
 Empty group: 2402 to 2402
 Empty group: 2404 to 2418
 Empty group: 2420 to 2426
 Empty group: 2429 to 2437
 Empty group: 2439 to 2439
 Empty group: 2441 to 2444
 Empty group: 2446 to 2449
 Empty group: 2451 to 2452
 Empty group: 2454 to 2454
 Empty group: 2459 to 2459
 Empty group: 2461 to 2506
 Empty group: 2508 to 2522
 Empty group: 2524 to 2525
 Empty group: 2527 to 2537
 Empty group: 2539 to 2610
 Empty group: 2613 to 2613
 Empty group: 2616 to 2639
 Empty group: 2644 to 2644
 Empty group: 2647 to 2647
 Empty group: 2649 to 2668
 Empty group: 2670 to 2707
 Empty group: 2709 to 2715
 Empty group: 2717 to 2717
 Empty group: 2719 to 2719
 Empty group: 2721 to 2725
 Empty group: 2727 to 2727
 Empty group: 2729 to 2750
 Empty group: 2752 to 2752
 Empty group: 2754 to 2757
 Empty group: 2760 to 2764
 Empty group: 2766 to 2784
 Empty group: 2786 to 2789
 Empty group: 2791 to 2791
 Empty group: 2794 to 2797
 Empty group: 2799 to 2804
 Empty group: 2806 to 2810
 Empty group: 2814 to 2814
 Empty group: 2816 to 2816
 Empty group: 2819 to 2859
 Empty group: 2861 to 2861
 Empty group: 2863 to 2865
 Empty group: 2867 to 2871
 Empty group: 2874 to 2880
 Empty group: 2883 to 2886
 Empty group: 2888 to 2891
 Empty group: 2895 to 2897
 Empty group: 2901 to 2906
 Empty group: 2909 to 2914
 Empty group: 2916 to 2920
 Empty group: 2922 to 2934
 Empty group: 2936 to 2939
 Empty group: 2941 to 2947
 Empty group: 2949 to 2949
 Empty group: 2955 to 2955
 Empty group: 2962 to 2962
 Empty group: 2969 to 2969
 Empty group: 2980 to 2980
 Empty group: 2985 to 2985
 Empty group: 2992 to 2992
 Empty group: 2996 to 2996
 Empty group: 3006 to 3006
 Empty group: 3024 to 3024
 Empty group: 3026 to 3027
 Empty group: 3030 to 3032
 Empty group: 3035 to 3035
 Empty group: 3050 to 3050
 Empty group: 3072 to 3073
 Empty group: 3091 to 3093
 Empty group: 3101 to 3101
 Empty group: 3111 to 3111
 Empty group: 3118 to 3120
 Empty group: 3128 to 3129
 Empty group: 3132 to 3132
 Empty group: 3136 to 3136
 Empty group: 3142 to 3143
 Empty group: 3148 to 3148
 Empty group: 3150 to 3150
 Empty group: 3154 to 3154
 Empty group: 3157 to 3157
 Empty group: 3161 to 3161
 Empty group: 3168 to 3168
 Empty group: 3173 to 3173
 Empty group: 3178 to 3178
 Empty group: 3183 to 3184
 Empty group: 3188 to 3189
 Empty group: 3194 to 3194
 Empty group: 3199 to 3199
 Empty group: 3202 to 3202
 Empty group: 3223 to 3223
 Empty group: 3231 to 3231
 Empty group: 3241 to 3242
 Empty group: 3247 to 3248
 Empty group: 3250 to 3250
 Empty group: 3254 to 3254
 Empty group: 3263 to 3263
 Empty group: 3275 to 3275
 Empty group: 3279 to 3280
 Empty group: 3287 to 3287
 Empty group: 3299 to 3299
 Empty group: 3305 to 3305
 Empty group: 3318 to 3319
 Empty group: 3324 to 3324
 Empty group: 3330 to 3330
 Empty group: 3350 to 3350
 Empty group: 3352 to 3355
 Empty group: 3357 to 3358
 Empty group: 3363 to 3363
 Empty group: 3369 to 3369
 Empty group: 3371 to 3371
 Empty group: 3375 to 3376
 Empty group: 3380 to 3380
 Empty group: 3383 to 3383
 Empty group: 3385 to 3385
 Empty group: 3407 to 3407
 Empty group: 3412 to 3413
 Empty group: 3420 to 3420
 Empty group: 3422 to 3422
 Empty group: 3428 to 3428
 Empty group: 3451 to 3451
 Empty group: 3454 to 3454
 Empty group: 3465 to 3465
 Empty group: 3475 to 3475
 Empty group: 3477 to 3477
 Empty group: 3494 to 3494
 Empty group: 3498 to 3498
 Empty group: 3508 to 3508
 Empty group: 3523 to 3526
 Empty group: 3528 to 3528
 Empty group: 3537 to 3537
 Empty group: 3540 to 3540
 Empty group: 3546 to 3546
 Empty group: 3549 to 3549
 Empty group: 3554 to 3554
 Empty group: 3564 to 3565
 Empty group: 3567 to 3567
 Empty group: 3580 to 3580
 Empty group: 3584 to 3584
 Empty group: 3601 to 3601
 Empty group: 3607 to 3607
 Empty group: 3609 to 3609
 Empty group: 3622 to 3622
 Empty group: 3631 to 3631
 Empty group: 3634 to 3635
 Empty group: 3642 to 3642
 Empty group: 3644 to 3644
 Empty group: 3646 to 3648
 Empty group: 3656 to 3656
 Empty group: 3661 to 3661
 Empty group: 3663 to 3664
 Empty group: 3669 to 3669
 Empty group: 3675 to 3675
 Empty group: 3691 to 3692
 Empty group: 3696 to 3696
 Empty group: 3699 to 3699
 Empty group: 3709 to 3711
 Empty group: 3735 to 3735
 Empty group: 3739 to 3739
 Empty group: 3742 to 3742
 Empty group: 3748 to 3748
 Empty group: 3752 to 3752
 Empty group: 3763 to 3763
 Empty group: 3766 to 3766
 Empty group: 3768 to 3768
 Empty group: 3773 to 3775
 Empty group: 3785 to 3785
 Empty group: 3787 to 3787
 Empty group: 3795 to 3795
 Empty group: 3804 to 3804
 Empty group: 3808 to 3808
 Empty group: 3812 to 3812
 Empty group: 3817 to 3818
 Empty group: 3823 to 3824
 Empty group: 3828 to 3828
 Empty group: 3858 to 3858
 Empty group: 3864 to 3864
 Empty group: 3870 to 3870
 Empty group: 3874 to 3874
 Empty group: 3878 to 3878
 Empty group: 3898 to 3898
 Empty group: 3904 to 3904
 Empty group: 3921 to 3921
 Empty group: 3936 to 3936
 Empty group: 3943 to 3943
 Empty group: 3945 to 3948
 Empty group: 3953 to 3953
 Empty group: 3957 to 3957
 Empty group: 3960 to 3961
 Empty group: 3967 to 3967
 Empty group: 3969 to 3969
 Empty group: 3974 to 3974
 Empty group: 3982 to 3982
 Empty group: 3985 to 3986
 Empty group: 3990 to 3990
 Empty group: 3995 to 3995
 Empty group: 3999 to 3999
 Empty group: 4004 to 4004
 Empty group: 4006 to 4006
 Empty group: 4009 to 4009
 Empty group: 4013 to 4013
 Empty group: 4017 to 4017
 Empty group: 4019 to 4019
 Empty group: 4024 to 4025
 Empty group: 4047 to 4048
 Empty group: 4059 to 4059
 Empty group: 4065 to 4065
 Empty group: 4069 to 4069
 Empty group: 4071 to 4071
 Empty group: 4077 to 4079
 Empty group: 4089 to 4089
 Empty group: 4103 to 4103
 Empty group: 4118 to 4118
 Empty group: 4129 to 4129
 Empty group: 4135 to 4135
 Empty group: 4144 to 4144
 Empty group: 4164 to 4164
 Empty group: 4169 to 4170
 Empty group: 4173 to 4173
 Empty group: 4181 to 4181
 Empty group: 4187 to 4187
 Empty group: 4204 to 4205
 Empty group: 4209 to 4210
 Empty group: 4219 to 4219
 Empty group: 4226 to 4227
 Empty group: 4231 to 4231
 Empty group: 4245 to 4245
 Empty group: 4255 to 4255
 Empty group: 4264 to 4264
 Empty group: 4266 to 4266
 Empty group: 4272 to 4272
 Empty group: 4281 to 4282
 Empty group: 4288 to 4288
 Empty group: 4305 to 4305
 Empty group: 4313 to 4313
 Empty group: 4323 to 4324
 Empty group: 4330 to 4330
 Empty group: 4333 to 4333
 Empty group: 4338 to 4338
 Empty group: 4344 to 4344
 Empty group: 4348 to 4348
 Empty group: 4350 to 4350
 Empty group: 4357 to 4357
 Empty group: 4359 to 4359
 Empty group: 4373 to 4373
 Empty group: 4390 to 4390
 Empty group: 4393 to 4393
 Empty group: 4395 to 4396
 Empty group: 4408 to 4408
 Empty group: 4421 to 4421
 Empty group: 4424 to 4424
 Empty group: 4427 to 4427
 Empty group: 4439 to 4439
 Empty group: 4447 to 4448
 Empty group: 4450 to 4450
 Empty group: 4453 to 4453
 Empty group: 4455 to 4455
 Empty group: 4459 to 4459
 Empty group: 4461 to 4461
 Empty group: 4463 to 4463
 Empty group: 4465 to 4466
 Empty group: 4480 to 4480
 Empty group: 4496 to 4496
 Empty group: 4501 to 4501
 Empty group: 4503 to 4504
 Empty group: 4517 to 4517
 Empty group: 4520 to 4520
 Empty group: 4548 to 4548
 Empty group: 4559 to 4559
 Empty group: 4571 to 4572
 Empty group: 4580 to 4582
 Empty group: 4591 to 4593
 Empty group: 4605 to 4605
 Empty group: 4611 to 4613
 Empty group: 4615 to 4616
 Empty group: 4620 to 4620
 Empty group: 4625 to 4625
 Empty group: 4629 to 4629
 Empty group: 4633 to 4634
 Empty group: 4641 to 4641
 Empty group: 4643 to 4644
 Empty group: 4646 to 4647
 Empty group: 4649 to 4649
 Empty group: 4651 to 4652
 Empty group: 4662 to 4663
 Empty group: 4674 to 4674
 Empty group: 4676 to 4676
 Empty group: 4681 to 4681
 Empty group: 4691 to 4691
 Empty group: 4700 to 4700
 Empty group: 4702 to 4702
 Empty group: 4713 to 4715
 Empty group: 4719 to 4719
 Empty group: 4723 to 4723
 Empty group: 4730 to 4730
 Empty group: 4734 to 4734
 Empty group: 4737 to 4737
 Empty group: 4740 to 4740
 Empty group: 4742 to 4742
 Empty group: 4752 to 4755
 Empty group: 4760 to 4760
 Empty group: 4762 to 4762
 Empty group: 4765 to 4765
 Empty group: 4773 to 4773
 Empty group: 4781 to 4781
 Empty group: 4783 to 4783
 Empty group: 4792 to 4792
 Empty group: 4795 to 4795
 Empty group: 4806 to 4806
 Empty group: 4808 to 4810
 Empty group: 4832 to 4832
 Empty group: 4835 to 4835
 Empty group: 4854 to 4854
 Empty group: 4858 to 4858
 Empty group: 4862 to 4862
 Empty group: 4864 to 4864
 Empty group: 4870 to 4872
 Empty group: 4875 to 4875
 Empty group: 4886 to 4886
 Empty group: 4889 to 4889
 Empty group: 4892 to 4892
 Empty group: 4895 to 4895
 Empty group: 4898 to 4899
 Empty group: 4901 to 4901
 Empty group: 4909 to 4910
 Empty group: 4915 to 4917
 Empty group: 4921 to 4921
 Empty group: 4925 to 4925
 Empty group: 4930 to 4931
 Empty group: 4938 to 4940
 Empty group: 4946 to 4947
 Empty group: 4953 to 4954
 Empty group: 4969 to 4970
 Empty group: 4989 to 4989
 Empty group: 4991 to 4991
 Empty group: 4993 to 4993
 Empty group: 4996 to 4996
 Empty group: 4999 to 4999
 Empty group: 5006 to 5007
 Empty group: 5009 to 5009
 Empty group: 5012 to 5013
 Empty group: 5024 to 5024
 Empty group: 5033 to 5033
 Empty group: 5036 to 5036
 Empty group: 5050 to 5050
 Empty group: 5068 to 5069
 Empty group: 5072 to 5073
 Empty group: 5078 to 5080
 Empty group: 5082 to 5082
 Empty group: 5091 to 5091
 Empty group: 5098 to 5098
 Empty group: 5100 to 5100
 Empty group: 5105 to 5106
 Empty group: 5110 to 5110
 Empty group: 5112 to 5114
 Empty group: 5117 to 5117
 Empty group: 5119 to 5120
 Empty group: 5126 to 5127
 Empty group: 5133 to 5133
 Empty group: 5142 to 5142
 Empty group: 5144 to 5144
 Empty group: 5146 to 5146
 Empty group: 5152 to 5152
 Empty group: 5156 to 5158
 Empty group: 5161 to 5161
 Empty group: 5170 to 5170
 Empty group: 5177 to 5180
 Empty group: 5182 to 5183
 Empty group: 5186 to 5186
 Empty group: 5189 to 5189
 Empty group: 5195 to 5196
 Empty group: 5202 to 5202
 Empty group: 5205 to 5205
 Empty group: 5213 to 5214
 Empty group: 5216 to 5216
 Empty group: 5228 to 5228
 Empty group: 5234 to 5234
 Empty group: 5237 to 5237
 Empty group: 5243 to 5243
 Empty group: 5247 to 5247
 Empty group: 5250 to 5252
 Empty group: 5255 to 5255
 Empty group: 5258 to 5258
 Empty group: 5260 to 5261
 Empty group: 5264 to 5265
 Empty group: 5271 to 5271
 Empty group: 5275 to 5275
 Empty group: 5277 to 5277
 Empty group: 5279 to 5279
 Empty group: 5282 to 5284
 Empty group: 5295 to 5297
 Empty group: 5309 to 5310
 Empty group: 5320 to 5323
 Empty group: 5325 to 5326
 Empty group: 5342 to 5342
 Empty group: 5350 to 5350
 Empty group: 5362 to 5363
 Empty group: 5367 to 5367
 Empty group: 5369 to 5369
 Empty group: 5371 to 5374
 Empty group: 5390 to 5391
 Empty group: 5402 to 5402
 Empty group: 5406 to 5406
 Empty group: 5419 to 5419
 Empty group: 5431 to 5431
 Empty group: 5433 to 5435
 Empty group: 5437 to 5437
 Empty group: 5450 to 5450
 Empty group: 5459 to 5459
 Empty group: 5468 to 5468
 Empty group: 5470 to 5471
 Empty group: 5475 to 5475
 Empty group: 5479 to 5479
 Empty group: 5489 to 5489
 Empty group: 5494 to 5500
 Empty group: 5502 to 5502
 Empty group: 5510 to 5510
 Empty group: 5513 to 5513
 Empty group: 5519 to 5520
 Empty group: 5522 to 5522
 Empty group: 5525 to 5525
 Empty group: 5533 to 5533
 Empty group: 5535 to 5535
 Empty group: 5539 to 5539
 Empty group: 5552 to 5553
 Empty group: 5576 to 5576
 Empty group: 5581 to 5582
 Empty group: 5592 to 5592
 Empty group: 5606 to 5607
 Empty group: 5610 to 5610
 Empty group: 5612 to 5613
 Empty group: 5621 to 5621
 Empty group: 5634 to 5634
 Empty group: 5657 to 5659
Namespace: mod
 Empty group: 0 to 27
 Empty group: 36 to 36
 Empty group: 42 to 42
 Empty group: 44 to 46
 Empty group: 48 to 48
 Empty group: 51 to 51
 Empty group: 53 to 54
 Empty group: 56 to 57
 Empty group: 64 to 64
 Empty group: 67 to 67
 Empty group: 71 to 71
 Empty group: 74 to 82
 Empty group: 88 to 88
 Empty group: 91 to 91
 Empty group: 93 to 94
 Empty group: 96 to 96
 Empty group: 101 to 101
 Empty group: 103 to 103
 Empty group: 105 to 105
 Empty group: 109 to 109
 Empty group: 113 to 113
 Empty group: 117 to 118
 Empty group: 122 to 122
 Empty group: 126 to 126
 Empty group: 128 to 129
 Empty group: 137 to 137
 Empty group: 141 to 141
 Empty group: 144 to 144
 Empty group: 146 to 149
 Empty group: 155 to 155
 Empty group: 161 to 161
 Empty group: 165 to 166
 Empty group: 174 to 174
 Empty group: 177 to 177
 Empty group: 183 to 183
 Empty group: 195 to 195
 Empty group: 198 to 198
 Empty group: 202 to 202
 Empty group: 208 to 210
 Empty group: 213 to 213
 Empty group: 219 to 220
 Empty group: 227 to 229
 Empty group: 234 to 234
 Empty group: 242 to 242
 Empty group: 248 to 248
 Empty group: 252 to 252
 Empty group: 256 to 256
 Empty group: 259 to 259
 Empty group: 262 to 263
 Empty group: 265 to 265
 Empty group: 300 to 301
 Empty group: 305 to 305
 Empty group: 307 to 308
 Empty group: 316 to 316
 Empty group: 321 to 322
 Empty group: 325 to 325
 Empty group: 331 to 331
 Empty group: 333 to 333
 Empty group: 337 to 337
 Empty group: 347 to 348
 Empty group: 353 to 353
 Empty group: 361 to 361
 Empty group: 376 to 376
 Empty group: 381 to 381
 Empty group: 400 to 400
 Empty group: 412 to 416
 Empty group: 418 to 419
 Empty group: 422 to 423
 Empty group: 428 to 428
 Empty group: 431 to 431
 Empty group: 436 to 438
 Empty group: 446 to 446
 Empty group: 450 to 450
 Empty group: 455 to 455
 Empty group: 460 to 461
 Empty group: 464 to 464
 Empty group: 468 to 471
 Empty group: 475 to 477
 Empty group: 482 to 482
 Empty group: 486 to 492
 Empty group: 497 to 497
 Empty group: 499 to 499
 Empty group: 506 to 509
 Empty group: 514 to 514
 Empty group: 520 to 520
 Empty group: 522 to 522
 Empty group: 525 to 526
 Empty group: 534 to 534
 Empty group: 547 to 547
 Empty group: 555 to 555
 Empty group: 559 to 560
 Empty group: 576 to 576
 Empty group: 581 to 581
 Empty group: 588 to 588
 Empty group: 603 to 603
 Empty group: 610 to 610
 Empty group: 612 to 612
 Empty group: 624 to 624
 Empty group: 638 to 638
 Empty group: 661 to 661
 Empty group: 668 to 668
 Empty group: 692 to 692
 Empty group: 714 to 714
 Empty group: 720 to 720
 Empty group: 732 to 732
 Empty group: 739 to 739
 Empty group: 755 to 756
 Empty group: 772 to 772
 Empty group: 794 to 794
 Empty group: 797 to 797
 Empty group: 826 to 826
 Empty group: 839 to 839
 Empty group: 861 to 862
 Empty group: 873 to 873
 Empty group: 898 to 898
 Empty group: 913 to 913
 Empty group: 918 to 918
 Empty group: 926 to 926
 Empty group: 956 to 956
 Empty group: 958 to 959
 Empty group: 978 to 978
 Empty group: 980 to 980
 Empty group: 991 to 991
 Empty group: 1002 to 1002
 Empty group: 1008 to 1008
 Empty group: 1021 to 1021
 Empty group: 1032 to 1032
 Empty group: 1057 to 1057
 Empty group: 1062 to 1062
 Empty group: 1071 to 1071
 Empty group: 1077 to 1079
 Empty group: 1081 to 1081
 Empty group: 1093 to 1093
 Empty group: 1101 to 1101
 Empty group: 1111 to 1111
 Empty group: 1142 to 1142
 Empty group: 1144 to 1144
 Empty group: 1147 to 1150
 Empty group: 1158 to 1159
 Empty group: 1163 to 1163
 Empty group: 1168 to 1168
 Empty group: 1175 to 1175
 Empty group: 1190 to 1190
 Empty group: 1199 to 1201
 Empty group: 1204 to 1205
 Empty group: 1222 to 1222
 Empty group: 1226 to 1226
 Empty group: 1235 to 1236
 Empty group: 1248 to 1249
 Empty group: 1259 to 1259
 Empty group: 1281 to 1281
 Empty group: 1292 to 1292
 Empty group: 1296 to 1296
 Empty group: 1302 to 1302
 Empty group: 1319 to 1319
 Empty group: 1321 to 1321
 Empty group: 1325 to 1325
 Empty group: 1337 to 1337
 Empty group: 1341 to 1341
 Empty group: 1349 to 1349
 Empty group: 1352 to 1352
 Empty group: 1355 to 1355
 Empty group: 1375 to 1376
 Empty group: 1391 to 1391
 Empty group: 1401 to 1401
 Empty group: 1404 to 1404
 Empty group: 1427 to 1427
 Empty group: 1429 to 1429
 Empty group: 1444 to 1448
 Empty group: 1453 to 1453
 Empty group: 1455 to 1455
 Empty group: 1457 to 1458
 Empty group: 1478 to 1478
 Empty group: 1500 to 1500
 Empty group: 1510 to 1510
 Empty group: 1517 to 1517
 Empty group: 1522 to 1522
 Empty group: 1557 to 1557
 Empty group: 1559 to 1559
 Empty group: 1564 to 1565
 Empty group: 1568 to 1568
 Empty group: 1576 to 1576
 Empty group: 1578 to 1578
 Empty group: 1580 to 1580
 Empty group: 1587 to 1587
 Empty group: 1605 to 1605
 Empty group: 1611 to 1613
 Empty group: 1619 to 1619
 Empty group: 1624 to 1624
 Empty group: 1632 to 1632
 Empty group: 1635 to 1635
 Empty group: 1644 to 1647
 Empty group: 1669 to 1669
 Empty group: 1679 to 1679
 Empty group: 1681 to 1681
 Empty group: 1686 to 1686
 Empty group: 1712 to 1712
 Empty group: 1722 to 1722
 Empty group: 1728 to 1728
 Empty group: 1730 to 1730
 Empty group: 1733 to 1733
 Empty group: 1748 to 1748
 Empty group: 1760 to 1761
 Empty group: 1765 to 1766
 Empty group: 1768 to 1768
 Empty group: 1774 to 1774
 Empty group: 1796 to 1796
 Empty group: 1837 to 1837
 Empty group: 1859 to 1860
 Empty group: 1883 to 1889
 Empty group: 1892 to 1893
 Empty group: 1898 to 1899
 Empty group: 1906 to 1906
 Empty group: 1913 to 1913
 Empty group: 1920 to 1920
 Empty group: 1923 to 1923
 Empty group: 1938 to 1938
 Empty group: 1947 to 1947
 Empty group: 1970 to 1970
 Empty group: 1988 to 1988
 Empty group: 2007 to 2007
 Empty group: 2025 to 2025
 Empty group: 2028 to 2028
 Empty group: 2032 to 2032
 Empty group: 2038 to 2038
 Empty group: 2049 to 2049
 Empty group: 2053 to 2053
 Empty group: 2057 to 2058
 Empty group: 2082 to 2082
 Empty group: 2085 to 2085
 Empty group: 2098 to 2098
 Empty group: 2107 to 2108
 Empty group: 2124 to 2124
 Empty group: 2139 to 2140
 Empty group: 2155 to 2155
 Empty group: 2176 to 2176
 Empty group: 2188 to 2188
 Empty group: 2190 to 2190
 Empty group: 2209 to 2209
 Empty group: 2212 to 2212
 Empty group: 2237 to 2237
 Empty group: 2241 to 2241
 Empty group: 2250 to 2250
 Empty group: 2254 to 2254
 Empty group: 2272 to 2273
 Empty group: 2281 to 2281
 Empty group: 2285 to 2286
 Empty group: 2302 to 2302
 Empty group: 2311 to 2311
 Empty group: 2340 to 2340
 Empty group: 2345 to 2345
 Empty group: 2363 to 2363
 Empty group: 2369 to 2369
 Empty group: 2385 to 2385
 Empty group: 2393 to 2393
 Empty group: 2423 to 2423
 Empty group: 2430 to 2430
 Empty group: 2443 to 2443
 Empty group: 2447 to 2449
 Empty group: 2464 to 2464
 Empty group: 2478 to 2478
 Empty group: 2481 to 2481
 Empty group: 2496 to 2496
 Empty group: 2504 to 2504
 Empty group: 2506 to 2506
 Empty group: 2513 to 2513
 Empty group: 2580 to 2580
 Empty group: 2586 to 2586
 Empty group: 2592 to 2597
 Empty group: 2604 to 2604
 Empty group: 2611 to 2611
 Empty group: 2629 to 2629
 Empty group: 2650 to 2650
 Empty group: 2659 to 2659
 Empty group: 2667 to 2667
 Empty group: 2700 to 2700
 Empty group: 2714 to 2714
 Empty group: 2753 to 2753
 Empty group: 2756 to 2756
 Empty group: 2765 to 2765
 Empty group: 2768 to 2768
 Empty group: 2796 to 2796
 Empty group: 2837 to 2837
 Empty group: 2955 to 2955
 Empty group: 2967 to 2967
 Empty group: 2998 to 2998
 Empty group: 3173 to 3173
Namespace: tim
 Empty group: 0 to 0
 Empty group: 2 to 5
 Empty group: 11 to 17
 Empty group: 19 to 19
 Empty group: 24 to 24
 Empty group: 27 to 29
 Empty group: 34 to 34
 Empty group: 44 to 44
 Empty group: 59 to 59
 Empty group: 66 to 66
 Empty group: 76 to 76
 Empty group: 89 to 89
 Empty group: 92 to 92
 Empty group: 94 to 94
 Empty group: 100 to 100
 Empty group: 104 to 109
 Empty group: 111 to 111
 Empty group: 113 to 121
 Empty group: 123 to 128
 Empty group: 134 to 135
 Empty group: 139 to 139
 Empty group: 141 to 163
 Empty group: 165 to 165
 Empty group: 167 to 167
 Empty group: 169 to 185
 Empty group: 187 to 236
 Empty group: 238 to 242
 Empty group: 244 to 267
 Empty group: 269 to 308
 Empty group: 310 to 315
 Empty group: 317 to 321
 Empty group: 324 to 324
 Empty group: 326 to 326
 Empty group: 328 to 328
 Empty group: 330 to 331
 Empty group: 333 to 335
 Empty group: 337 to 341
 Empty group: 343 to 350
 Empty group: 352 to 359
 Empty group: 363 to 365
 Empty group: 367 to 367
 Empty group: 369 to 371
 Empty group: 373 to 378
 Empty group: 381 to 383
 Empty group: 385 to 386
 Empty group: 388 to 388
 Empty group: 390 to 390
 Empty group: 393 to 394
 Empty group: 396 to 398
 Empty group: 400 to 400
 Empty group: 402 to 404
 Empty group: 406 to 422
 Empty group: 424 to 427
 Empty group: 429 to 433
 Empty group: 435 to 437
 Empty group: 439 to 448
 Empty group: 450 to 465
 Empty group: 467 to 478
 Empty group: 480 to 491
 Empty group: 493 to 496
 Empty group: 498 to 504
 Empty group: 506 to 514
 Empty group: 516 to 524
 Empty group: 527 to 531
 Empty group: 534 to 536
 Empty group: 538 to 538
 Empty group: 543 to 547
 Empty group: 555 to 555
 Empty group: 563 to 564
 Empty group: 566 to 566
 Empty group: 569 to 570
 Empty group: 573 to 573
 Empty group: 577 to 578
 Empty group: 582 to 583
 Empty group: 585 to 585
 Empty group: 588 to 590
 Empty group: 592 to 595
 Empty group: 598 to 598
 Empty group: 600 to 601
 Empty group: 606 to 606
 Empty group: 608 to 608
 Empty group: 613 to 614
 Empty group: 616 to 618
 Empty group: 621 to 624
 Empty group: 626 to 628
 Empty group: 632 to 634
 Empty group: 636 to 636
 Empty group: 638 to 639
 Empty group: 645 to 645
 Empty group: 647 to 648
 Empty group: 651 to 652
 Empty group: 657 to 657
 Empty group: 663 to 663
 Empty group: 665 to 666
 Empty group: 668 to 668
 Empty group: 672 to 672
 Empty group: 674 to 674
 Empty group: 676 to 676
 Empty group: 680 to 680
 Empty group: 685 to 685
 Empty group: 690 to 691
 Empty group: 693 to 694
 Empty group: 696 to 697
 Empty group: 700 to 701
 Empty group: 704 to 705
 Empty group: 708 to 708
 Empty group: 711 to 711
 Empty group: 714 to 714
 Empty group: 716 to 716
 Empty group: 718 to 719
 Empty group: 723 to 723
 Empty group: 725 to 729
 Empty group: 731 to 731
 Empty group: 733 to 733
 Empty group: 735 to 738
 Empty group: 740 to 740
 Empty group: 742 to 742
 Empty group: 745 to 747
 Empty group: 751 to 753
 Empty group: 756 to 760
 Empty group: 762 to 768
 Empty group: 771 to 771
 Empty group: 774 to 775
 Empty group: 777 to 777
 Empty group: 780 to 787
 Empty group: 790 to 791
 Empty group: 793 to 796
 Empty group: 798 to 800
 Empty group: 802 to 802
 Empty group: 805 to 805
 Empty group: 807 to 807
 Empty group: 809 to 814
 Empty group: 819 to 821
 Empty group: 823 to 824
 Empty group: 826 to 833
 Empty group: 836 to 837
 Empty group: 839 to 841
 Empty group: 844 to 844
 Empty group: 846 to 846
 Empty group: 848 to 848
 Empty group: 850 to 850
 Empty group: 852 to 854
 Empty group: 856 to 861
 Empty group: 864 to 868
 Empty group: 870 to 872
 Empty group: 874 to 882
 Empty group: 884 to 884
 Empty group: 887 to 887
 Empty group: 889 to 902
 Empty group: 904 to 904
 Empty group: 909 to 914
 Empty group: 916 to 916
 Empty group: 918 to 925
 Empty group: 927 to 929
 Empty group: 934 to 939
 Empty group: 941 to 950
 Empty group: 954 to 954
 Empty group: 956 to 956
 Empty group: 958 to 960
 Empty group: 962 to 967
 Empty group: 969 to 971
 Empty group: 976 to 985
 Empty group: 987 to 1004
 Empty group: 1006 to 1007
 Empty group: 1009 to 1009
 Empty group: 1015 to 1015
 Empty group: 1018 to 1020
 Empty group: 1022 to 1022
 Empty group: 1025 to 1029
 Empty group: 1031 to 1032
 Empty group: 1037 to 1040
 Empty group: 1043 to 1044
 Empty group: 1046 to 1046
 Empty group: 1048 to 1048
 Empty group: 1051 to 1051
 Empty group: 1053 to 1053
 Empty group: 1055 to 1055
 Empty group: 1058 to 1058
 Empty group: 1060 to 1061
 Empty group: 1069 to 1071
 Empty group: 1076 to 1076
 Empty group: 1078 to 1078
 Empty group: 1080 to 1083
 Empty group: 1085 to 1085
 Empty group: 1089 to 1089
 Empty group: 1092 to 1093
 Empty group: 1095 to 1096
 Empty group: 1099 to 1099
 Empty group: 1103 to 1103
 Empty group: 1110 to 1110
 Empty group: 1113 to 1113
 Empty group: 1115 to 1127
 Empty group: 1130 to 1132
 Empty group: 1134 to 1135
 Empty group: 1137 to 1137
 Empty group: 1141 to 1141
 Empty group: 1143 to 1143
 Empty group: 1146 to 1146
 Empty group: 1148 to 1149
 Empty group: 1152 to 1153
 Empty group: 1155 to 1156
 Empty group: 1159 to 1160
 Empty group: 1162 to 1163
 Empty group: 1167 to 1167
 Empty group: 1171 to 1171
 Empty group: 1176 to 1177
 Empty group: 1181 to 1187
 Empty group: 1189 to 1191
 Empty group: 1193 to 1197
 Empty group: 1200 to 1205
 Empty group: 1208 to 1209
 Empty group: 1212 to 1214
 Empty group: 1217 to 1222
 Empty group: 1224 to 1224
 Empty group: 1226 to 1227
 Empty group: 1237 to 1239
 Empty group: 1242 to 1247
 Empty group: 1249 to 1251
 Empty group: 1253 to 1254
 Empty group: 1256 to 1257
 Empty group: 1270 to 1272
 Empty group: 1286 to 1287
 Empty group: 1294 to 1294
 Empty group: 1297 to 1298
 Empty group: 1300 to 1300
 Empty group: 1306 to 1307
 Empty group: 1309 to 1311
 Empty group: 1314 to 1314
 Empty group: 1317 to 1318
 Empty group: 1324 to 1324
 Empty group: 1326 to 1326
 Empty group: 1329 to 1329
 Empty group: 1332 to 1333
 Empty group: 1336 to 1337
 Empty group: 1339 to 1339
 Empty group: 1343 to 1343
 Empty group: 1345 to 1345
 Empty group: 1348 to 1401
 Empty group: 1404 to 1404
 Empty group: 1407 to 1407
 Empty group: 1411 to 1451
 Empty group: 1453 to 1453
 Empty group: 1457 to 1457
 Empty group: 1461 to 1461
 Empty group: 1463 to 1464
 Empty group: 1467 to 1467
 Empty group: 1469 to 1503
 Empty group: 1507 to 1533
 Empty group: 1537 to 1539
 Empty group: 1541 to 1541
 Empty group: 1544 to 1618
 Empty group: 1621 to 1621
 Empty group: 1624 to 1624
 Empty group: 1626 to 1883
 Empty group: 1887 to 1888
 Empty group: 1890 to 1897
 Empty group: 1899 to 1918
 Empty group: 1924 to 1924
 Empty group: 1926 to 1926
 Empty group: 1935 to 2022
 Empty group: 2034 to 2169
 Empty group: 2171 to 2370
 Empty group: 2372 to 2387
 Empty group: 2389 to 2389
 Empty group: 2392 to 2395
 Empty group: 2397 to 2399
 Empty group: 2401 to 2407
 Empty group: 2409 to 2418
 Empty group: 2420 to 2420
 Empty group: 2422 to 2432
 Empty group: 2434 to 2435
 Empty group: 2438 to 2438
 Empty group: 2440 to 2446
 Empty group: 2448 to 2453
 Empty group: 2455 to 2462
 Empty group: 2464 to 2466
 Empty group: 2468 to 2481
 Empty group: 2483 to 2495
 Empty group: 2498 to 2508
 Empty group: 2510 to 2634
 Empty group: 2636 to 2646
 Empty group: 2648 to 2649
 Empty group: 2651 to 2660
 Empty group: 2662 to 2672
 Empty group: 2674 to 2676
 Empty group: 2678 to 2680
 Empty group: 2682 to 2689
 Empty group: 2692 to 2704
 Empty group: 2706 to 2719
 Empty group: 2721 to 2737
 Empty group: 2739 to 2739
 Empty group: 2741 to 2744
 Empty group: 2746 to 2755
 Empty group: 2757 to 2798
 Empty group: 2800 to 2815
 Empty group: 2817 to 2822
 Empty group: 2824 to 2824
 Empty group: 2827 to 2833
 Empty group: 2836 to 2837
 Empty group: 2839 to 2841
 Empty group: 2843 to 2848
 Empty group: 2850 to 2855
 Empty group: 2858 to 2860
 Empty group: 2862 to 2881
 Empty group: 2883 to 2896
 Empty group: 2899 to 2900
 Empty group: 2902 to 2914
 Empty group: 2916 to 2927
 Empty group: 2929 to 2960
 Empty group: 2962 to 2975
 Empty group: 2977 to 2988
 Empty group: 2990 to 2992
 Empty group: 2994 to 2994
 Empty group: 2996 to 3005
 Empty group: 3008 to 3008
 Empty group: 3013 to 3015
 Empty group: 3017 to 3017
 Empty group: 3020 to 3020
 Empty group: 3023 to 3023
 Empty group: 3025 to 3026
 Empty group: 3029 to 3029
 Empty group: 3033 to 3036
 Empty group: 3040 to 3042
 Empty group: 3046 to 3051
 Empty group: 3056 to 3058
 Empty group: 3061 to 3062
 Empty group: 3070 to 3070
 Empty group: 3076 to 3076
 Empty group: 3082 to 3082
 Empty group: 3093 to 3093
 Empty group: 3096 to 3096
 Empty group: 3114 to 3114
 Empty group: 3119 to 3119
 Empty group: 3121 to 3121
 Empty group: 3126 to 3126
 Empty group: 3128 to 3129
 Empty group: 3131 to 3133
 Empty group: 3136 to 3136
 Empty group: 3138 to 3138
 Empty group: 3143 to 3143
 Empty group: 3145 to 3145
 Empty group: 3154 to 3154
 Empty group: 3164 to 3166
 Empty group: 3168 to 3168
 Empty group: 3176 to 3178
 Empty group: 3180 to 3181
 Empty group: 3183 to 3183
 Empty group: 3191 to 3191
 Empty group: 3199 to 3199
 Empty group: 3204 to 3204
 Empty group: 3206 to 3208
 Empty group: 3210 to 3210
 Empty group: 3214 to 3214
 Empty group: 3222 to 3222
 Empty group: 3226 to 3226
 Empty group: 3230 to 3347
 Empty group: 3349 to 3397
 Empty group: 3399 to 3464
 Empty group: 3466 to 3473
 Empty group: 3475 to 3480
 Empty group: 3506 to 3506
 Empty group: 3508 to 3508
 Empty group: 3515 to 3515
 Empty group: 3521 to 3521
 Empty group: 3542 to 3544
 Empty group: 3554 to 3554
 Empty group: 3561 to 3563
 Empty group: 3569 to 3570
 Empty group: 3573 to 3573
 Empty group: 3581 to 3581
 Empty group: 3586 to 3586
 Empty group: 3593 to 3593
 Empty group: 3598 to 3598
 Empty group: 3617 to 3617
 Empty group: 3646 to 3646
 Empty group: 3650 to 3650
 Empty group: 3652 to 3652
 Empty group: 3658 to 3658
 Empty group: 3660 to 3660
 Empty group: 3664 to 3665
 Empty group: 3672 to 3672
 Empty group: 3675 to 3676
 Empty group: 3688 to 3688
 Empty group: 3695 to 3695
 Empty group: 3702 to 3703
 Empty group: 3705 to 3706
 Empty group: 3708 to 3708
 Empty group: 3716 to 3716
 Empty group: 3728 to 3728
 Empty group: 3730 to 3730
 Empty group: 3733 to 3733
 Empty group: 3749 to 3749
 Empty group: 3751 to 3751
 Empty group: 3757 to 3757
 Empty group: 3765 to 3765
 Empty group: 3767 to 3767
 Empty group: 3772 to 3772
 Empty group: 3779 to 3780
 Empty group: 3784 to 3784
 Empty group: 3790 to 3790
 Empty group: 3822 to 3822
 Empty group: 3826 to 3826
 Empty group: 3836 to 3836
 Empty group: 3841 to 3841
 Empty group: 3851 to 3852
 Empty group: 3859 to 3859
 Empty group: 3873 to 3873
 Empty group: 3880 to 3880
 Empty group: 3890 to 3898
 Empty group: 3914 to 3914
 Empty group: 3927 to 3942
Namespace: tmi
Namespace: Note
Namespace: note
Namespace: TATCH
 Empty group: 0 to 1
 Empty group: 3 to 5
 Empty group: 14 to 14
 Empty group: 17 to 18
 Empty group: 28 to 29
 Empty group: 33 to 33
 Empty group: 37 to 37
 Empty group: 49 to 49
 Empty group: 53 to 53
 Empty group: 57 to 57
 Empty group: 60 to 60
 Empty group: 64 to 65
 Empty group: 81 to 81
 Empty group: 104 to 105
 Empty group: 108 to 108
 Empty group: 110 to 110
 Empty group: 117 to 117
 Empty group: 120 to 121
 Empty group: 123 to 123
 Empty group: 130 to 130
 Empty group: 132 to 132
 Empty group: 134 to 135
 Empty group: 141 to 141
 Empty group: 150 to 151
 Empty group: 157 to 157
 Empty group: 163 to 163
 Empty group: 167 to 167
 Empty group: 176 to 177
 Empty group: 179 to 179
 Empty group: 199 to 199
 Empty group: 205 to 205
 Empty group: 213 to 214
 Empty group: 220 to 220
 Empty group: 226 to 227
 Empty group: 230 to 230
 Empty group: 232 to 232
 Empty group: 234 to 234
 Empty group: 244 to 244
 Empty group: 258 to 258
 Empty group: 264 to 264
 Empty group: 266 to 267
 Empty group: 284 to 284
 Empty group: 286 to 286
 Empty group: 288 to 288
 Empty group: 292 to 292
 Empty group: 302 to 302
 Empty group: 308 to 308
 Empty group: 313 to 313
 Empty group: 316 to 316
 Empty group: 328 to 328
 Empty group: 333 to 334
 Empty group: 336 to 337
 Empty group: 340 to 341
 Empty group: 348 to 348
 Empty group: 355 to 355
 Empty group: 358 to 358
 Empty group: 366 to 366
 Empty group: 369 to 369
 Empty group: 373 to 373
 Empty group: 377 to 377
 Empty group: 379 to 379
 Empty group: 383 to 383
 Empty group: 385 to 385
 Empty group: 388 to 388
 Empty group: 392 to 392
 Empty group: 397 to 398
 Empty group: 406 to 408
 Empty group: 411 to 413
 Empty group: 415 to 416
 Empty group: 420 to 422
 Empty group: 424 to 424
 Empty group: 428 to 428
 Empty group: 431 to 431
 Empty group: 439 to 439
 Empty group: 449 to 449
 Empty group: 454 to 455
 Empty group: 461 to 462
 Empty group: 465 to 465
 Empty group: 469 to 469
 Empty group: 471 to 472
 Empty group: 482 to 482
 Empty group: 487 to 487
 Empty group: 489 to 489
 Empty group: 495 to 497
 Empty group: 500 to 500
 Empty group: 504 to 505
 Empty group: 507 to 507
 Empty group: 512 to 512
 Empty group: 523 to 523
 Empty group: 525 to 525
 Empty group: 530 to 530
 Empty group: 538 to 538
 Empty group: 543 to 544
 Empty group: 551 to 551
 Empty group: 555 to 557
 Empty group: 559 to 560
 Empty group: 562 to 562
 Empty group: 564 to 564
 Empty group: 566 to 566
 Empty group: 568 to 568
 Empty group: 571 to 573
 Empty group: 578 to 578
 Empty group: 581 to 582
 Empty group: 588 to 588
 Empty group: 591 to 593
 Empty group: 598 to 598
 Empty group: 602 to 602
 Empty group: 605 to 605
 Empty group: 616 to 617
 Empty group: 621 to 621
 Empty group: 623 to 623
 Empty group: 633 to 634
 Empty group: 639 to 639
 Empty group: 646 to 646
 Empty group: 648 to 649
 Empty group: 654 to 656
 Empty group: 665 to 665
 Empty group: 676 to 677
 Empty group: 686 to 686
 Empty group: 691 to 691
 Empty group: 693 to 694
 Empty group: 697 to 697
 Empty group: 701 to 702
 Empty group: 705 to 706
 Empty group: 712 to 712
 Empty group: 721 to 722
 Empty group: 724 to 728
 Empty group: 730 to 730
Namespace: TDCH
 Empty group: 0 to 735
 Empty group: 745 to 745
 Empty group: 747 to 747
 Empty group: 764 to 764
 Empty group: 772 to 772
 Empty group: 774 to 774
Namespace: TAC
 Empty group: 0 to 0
 Empty group: 5 to 9
 Empty group: 11 to 20
 Empty group: 22 to 1050
 Empty group: 1053 to 1058
 Empty group: 1061 to 1062
 Empty group: 1064 to 1064
 Empty group: 1066 to 1072
 Empty group: 1074 to 1077
 Empty group: 1081 to 1084
 Empty group: 1087 to 1094
 Empty group: 1096 to 1098
 Empty group: 1100 to 1101
 Empty group: 1111 to 1112
 Empty group: 1114 to 1117
 Empty group: 1120 to 1121
 Empty group: 1124 to 1124
 Empty group: 1129 to 1130
 Empty group: 1132 to 1132
 Empty group: 1134 to 1134
 Empty group: 1140 to 1140
 Empty group: 1142 to 1144
 Empty group: 1146 to 1147
 Empty group: 1152 to 1153
 Empty group: 1155 to 1155
 Empty group: 1157 to 1160
 Empty group: 1163 to 1163
 Empty group: 1165 to 1166
 Empty group: 1168 to 1169
 Empty group: 1176 to 1180
 Empty group: 1187 to 1187
 Empty group: 1189 to 1193
 Empty group: 1196 to 1199
 Empty group: 1203 to 1203
 Empty group: 1206 to 1206
 Empty group: 1209 to 1213
 Empty group: 1218 to 1223
 Empty group: 1226 to 1231
 Empty group: 1234 to 1234
 Empty group: 1237 to 1238
 Empty group: 1241 to 1242
 Empty group: 1247 to 1247
 Empty group: 1250 to 1251
 Empty group: 1254 to 1255
 Empty group: 1259 to 1259
 Empty group: 1262 to 1262
 Empty group: 1264 to 1264
 Empty group: 1266 to 1266
 Empty group: 1269 to 1269
 Empty group: 1271 to 1271
 Empty group: 1273 to 1274
 Empty group: 1276 to 1277
 Empty group: 1280 to 1280
 Empty group: 1282 to 1290
 Empty group: 1293 to 1294
 Empty group: 1300 to 1303
 Empty group: 1306 to 1307
 Empty group: 1324 to 1328
 Empty group: 1331 to 1331
 Empty group: 1333 to 1333
 Empty group: 1340 to 1342
 Empty group: 1348 to 1348
 Empty group: 1351 to 1351
 Empty group: 1353 to 1353
 Empty group: 1358 to 1358
 Empty group: 1362 to 1363
 Empty group: 1367 to 1367
 Empty group: 1369 to 1369
 Empty group: 1371 to 1371
 Empty group: 1374 to 1375
 Empty group: 1379 to 1379
 Empty group: 1384 to 1384
 Empty group: 1386 to 1387
 Empty group: 1390 to 1390
 Empty group: 1392 to 1392
 Empty group: 1394 to 1394
 Empty group: 1398 to 1398
 Empty group: 1400 to 1401
 Empty group: 1404 to 1407
 Empty group: 1410 to 1410
 Empty group: 1412 to 1415
 Empty group: 1417 to 1417
 Empty group: 1420 to 1420
 Empty group: 1422 to 1423
 Empty group: 1428 to 1428
 Empty group: 1430 to 1430
 Empty group: 1434 to 1434
 Empty group: 1450 to 1450
 Empty group: 1453 to 1453
 Empty group: 1455 to 1456
 Empty group: 1458 to 1459
 Empty group: 1463 to 1463
 Empty group: 1470 to 1470
 Empty group: 1472 to 1473
 Empty group: 1477 to 1477
 Empty group: 1479 to 1479
 Empty group: 1482 to 1482
 Empty group: 1485 to 1485
 Empty group: 1487 to 1489
 Empty group: 1492 to 1492
 Empty group: 1494 to 1495
 Empty group: 1497 to 1497
 Empty group: 1501 to 1501
 Empty group: 1505 to 1505
 Empty group: 1509 to 1510
 Empty group: 1513 to 1513
 Empty group: 1517 to 1519
 Empty group: 1521 to 1523
 Empty group: 1525 to 1526
 Empty group: 1528 to 1528
 Empty group: 1530 to 1531
 Empty group: 1533 to 1533
 Empty group: 1535 to 1535
 Empty group: 1537 to 1537
 Empty group: 1540 to 1540
 Empty group: 1542 to 1542
 Empty group: 1544 to 1544
 Empty group: 1546 to 1546
 Empty group: 1552 to 1552
 Empty group: 1555 to 1555
 Empty group: 1558 to 1561
 Empty group: 1563 to 1564
 Empty group: 1568 to 1571
 Empty group: 1573 to 1573
 Empty group: 1575 to 1576
 Empty group: 1578 to 1581
 Empty group: 1583 to 1584
 Empty group: 1587 to 1587
 Empty group: 1589 to 1592
 Empty group: 1594 to 1595
 Empty group: 1599 to 1603
 Empty group: 1605 to 1605
 Empty group: 1609 to 1609
 Empty group: 1614 to 1614
 Empty group: 1618 to 1621
 Empty group: 1624 to 1624
 Empty group: 1626 to 1626
 Empty group: 1628 to 1629
 Empty group: 1631 to 1636
 Empty group: 1638 to 1638
 Empty group: 1641 to 1641
 Empty group: 1643 to 1643
 Empty group: 1645 to 1645
 Empty group: 1648 to 1649
 Empty group: 1653 to 1656
 Empty group: 1660 to 1661
 Empty group: 1669 to 1669
 Empty group: 1671 to 1671
 Empty group: 1676 to 1680
 Empty group: 1686 to 1686
 Empty group: 1692 to 1692
 Empty group: 1695 to 1696
 Empty group: 1698 to 1698
 Empty group: 1702 to 1702
 Empty group: 1704 to 1705
 Empty group: 1712 to 1712
 Empty group: 1715 to 1715
 Empty group: 1725 to 1726
 Empty group: 1738 to 1738
 Empty group: 1744 to 1745
 Empty group: 1762 to 1762
 Empty group: 1773 to 1773
 Empty group: 1778 to 1778
 Empty group: 1783 to 1783
 Empty group: 1786 to 1786
 Empty group: 1789 to 1789
 Empty group: 1791 to 1792
 Empty group: 1795 to 1795
 Empty group: 1798 to 1798
 Empty group: 1800 to 1801
 Empty group: 1803 to 1803
 Empty group: 1807 to 1807
 Empty group: 1809 to 1809
 Empty group: 1813 to 1814
 Empty group: 1816 to 1816
 Empty group: 1824 to 1824
 Empty group: 1826 to 1826
 Empty group: 1836 to 1836
 Empty group: 1838 to 1838
 Empty group: 1842 to 1845
 Empty group: 1851 to 1852
 Empty group: 1857 to 1857
 Empty group: 1861 to 1862
 Empty group: 1864 to 1866
 Empty group: 1870 to 1870
 Empty group: 1879 to 1881
 Empty group: 1885 to 1885
 Empty group: 1888 to 1888
 Empty group: 1898 to 1898
 Empty group: 1906 to 1906
 Empty group: 1908 to 1909
 Empty group: 1911 to 1911
 Empty group: 1917 to 1917
 Empty group: 1919 to 1919
 Empty group: 1925 to 1925
 Empty group: 1929 to 1929
 Empty group: 1931 to 1934
 Empty group: 1937 to 1938
 Empty group: 1941 to 1941
 Empty group: 1943 to 1943
 Empty group: 1949 to 1951
 Empty group: 1964 to 1964
 Empty group: 1984 to 1984
 Empty group: 1986 to 1987
 Empty group: 1990 to 1991
 Empty group: 1996 to 1996
 Empty group: 1998 to 1998
 Empty group: 2001 to 2004
 Empty group: 2007 to 2012
 Empty group: 2017 to 2017
 Empty group: 2019 to 2019
 Empty group: 2021 to 2024
 Empty group: 2026 to 2030
 Empty group: 2032 to 2036
 Empty group: 2041 to 2044
 Empty group: 2047 to 2048
 Empty group: 2050 to 2050
 Empty group: 2052 to 2053
 Empty group: 2055 to 2056
 Empty group: 2059 to 2059
 Empty group: 2063 to 2063
 Empty group: 2065 to 2068
 Empty group: 2070 to 2070
 Empty group: 2072 to 2073
 Empty group: 2075 to 2079
 Empty group: 2081 to 2084
 Empty group: 2086 to 2087
 Empty group: 2089 to 2089
 Empty group: 2091 to 2094
 Empty group: 2096 to 2098
 Empty group: 2102 to 2104
 Empty group: 2107 to 2107
 Empty group: 2109 to 2114
 Empty group: 2116 to 2117
 Empty group: 2119 to 2120
 Empty group: 2123 to 2132
 Empty group: 2134 to 2135
 Empty group: 2137 to 2138
 Empty group: 2140 to 2141
 Empty group: 2143 to 2147
 Empty group: 2149 to 2149
 Empty group: 2153 to 2153
 Empty group: 2155 to 2158
 Empty group: 2161 to 2161
 Empty group: 2163 to 2164
 Empty group: 2166 to 2167
 Empty group: 2169 to 2174
 Empty group: 2177 to 2183
 Empty group: 2185 to 2187
 Empty group: 2193 to 2193
 Empty group: 2196 to 2204
 Empty group: 2207 to 2210
 Empty group: 2213 to 2214
 Empty group: 2220 to 2221
 Empty group: 2224 to 2226
 Empty group: 2230 to 2231
 Empty group: 2237 to 2237
 Empty group: 2239 to 2241
 Empty group: 2245 to 2247
 Empty group: 2250 to 2251
 Empty group: 2262 to 2262
 Empty group: 2265 to 2266
 Empty group: 2273 to 2273
 Empty group: 2276 to 2281
 Empty group: 2283 to 2284
 Empty group: 2290 to 2290
 Empty group: 2296 to 2296
 Empty group: 2299 to 2299
 Empty group: 2309 to 2309
 Empty group: 2314 to 2314
 Empty group: 2324 to 2324
 Empty group: 2326 to 2326
 Empty group: 2330 to 2330
 Empty group: 2333 to 2333
 Empty group: 2336 to 2339
 Empty group: 2349 to 2349
 Empty group: 2353 to 2354
 Empty group: 2360 to 2362
 Empty group: 2364 to 2364
 Empty group: 2368 to 2368
 Empty group: 2370 to 2372
 Empty group: 2375 to 2375
 Empty group: 2382 to 2382
Namespace: TA
 Empty group: 0 to 6
 Empty group: 8 to 8
 Empty group: 10 to 10
 Empty group: 12 to 13
 Empty group: 15 to 15
 Empty group: 17 to 18
 Empty group: 20 to 20
 Empty group: 22 to 22
 Empty group: 24 to 24
 Empty group: 27 to 30
 Empty group: 36 to 36
 Empty group: 44 to 44
 Empty group: 46 to 47
 Empty group: 53 to 57
 Empty group: 59 to 59
 Empty group: 71 to 76
 Empty group: 79 to 79
 Empty group: 82 to 82
 Empty group: 85 to 85
 Empty group: 95 to 95
 Empty group: 101 to 101
 Empty group: 103 to 103
 Empty group: 105 to 105
 Empty group: 109 to 114
 Empty group: 121 to 123
 Empty group: 125 to 125
 Empty group: 127 to 128
 Empty group: 132 to 133
 Empty group: 135 to 137
 Empty group: 139 to 139
 Empty group: 142 to 142
 Empty group: 145 to 148
 Empty group: 150 to 151
 Empty group: 154 to 157
 Empty group: 160 to 161
 Empty group: 165 to 167
 Empty group: 170 to 170
 Empty group: 175 to 177
 Empty group: 179 to 181
 Empty group: 183 to 187
 Empty group: 191 to 192
 Empty group: 194 to 195
 Empty group: 199 to 201
 Empty group: 203 to 203
 Empty group: 205 to 206
 Empty group: 208 to 208
 Empty group: 210 to 210
 Empty group: 212 to 212
 Empty group: 215 to 215
 Empty group: 217 to 217
 Empty group: 219 to 219
 Empty group: 221 to 227
 Empty group: 230 to 230
 Empty group: 232 to 232
 Empty group: 235 to 236
 Empty group: 244 to 244
 Empty group: 248 to 249
 Empty group: 251 to 251
 Empty group: 255 to 256
 Empty group: 262 to 265
 Empty group: 267 to 272
 Empty group: 276 to 278
 Empty group: 280 to 280
 Empty group: 282 to 283
 Empty group: 285 to 285
 Empty group: 287 to 287
 Empty group: 289 to 291
 Empty group: 293 to 294
 Empty group: 296 to 296
 Empty group: 298 to 298
 Empty group: 302 to 305
 Empty group: 307 to 308
 Empty group: 312 to 312
 Empty group: 315 to 315
 Empty group: 321 to 321
 Empty group: 324 to 325
 Empty group: 329 to 329
 Empty group: 332 to 334
 Empty group: 336 to 337
 Empty group: 339 to 342
 Empty group: 346 to 349
 Empty group: 354 to 356
 Empty group: 359 to 360
 Empty group: 363 to 366
 Empty group: 368 to 368
 Empty group: 370 to 375
 Empty group: 383 to 385
 Empty group: 387 to 387
 Empty group: 390 to 392
 Empty group: 395 to 395
 Empty group: 399 to 399
 Empty group: 401 to 401
 Empty group: 404 to 404
 Empty group: 406 to 410
 Empty group: 413 to 415
 Empty group: 417 to 417
 Empty group: 422 to 422
 Empty group: 428 to 434
 Empty group: 436 to 437
 Empty group: 440 to 440
 Empty group: 443 to 446
 Empty group: 448 to 448
 Empty group: 451 to 451
 Empty group: 454 to 454
 Empty group: 456 to 458
 Empty group: 464 to 464
 Empty group: 466 to 466
 Empty group: 469 to 469
 Empty group: 472 to 479
 Empty group: 483 to 483
 Empty group: 485 to 487
 Empty group: 491 to 493
 Empty group: 496 to 496
 Empty group: 498 to 498
 Empty group: 500 to 500
 Empty group: 502 to 505
 Empty group: 507 to 509
 Empty group: 511 to 511
 Empty group: 517 to 517
 Empty group: 519 to 519
 Empty group: 525 to 525
 Empty group: 527 to 528
 Empty group: 530 to 530
 Empty group: 534 to 534
 Empty group: 536 to 541
 Empty group: 544 to 544
 Empty group: 546 to 548
 Empty group: 550 to 550
 Empty group: 552 to 555
 Empty group: 557 to 564
 Empty group: 567 to 569
 Empty group: 571 to 573
 Empty group: 575 to 575
 Empty group: 577 to 579
 Empty group: 581 to 581
 Empty group: 583 to 584
 Empty group: 588 to 589
 Empty group: 591 to 595
 Empty group: 597 to 597
 Empty group: 600 to 601
 Empty group: 603 to 605
 Empty group: 607 to 607
 Empty group: 611 to 611
 Empty group: 614 to 614
 Empty group: 616 to 621
 Empty group: 623 to 623
 Empty group: 625 to 627
 Empty group: 629 to 637
 Empty group: 641 to 642
 Empty group: 644 to 645
 Empty group: 650 to 651
 Empty group: 654 to 661
 Empty group: 663 to 663
 Empty group: 665 to 665
 Empty group: 670 to 670
 Empty group: 672 to 675
 Empty group: 677 to 677
 Empty group: 679 to 679
 Empty group: 682 to 683
 Empty group: 686 to 688
 Empty group: 694 to 695
 Empty group: 698 to 698
 Empty group: 700 to 701
 Empty group: 703 to 704
 Empty group: 709 to 709
 Empty group: 711 to 713
 Empty group: 715 to 715
 Empty group: 717 to 719
 Empty group: 721 to 721
 Empty group: 723 to 723
 Empty group: 725 to 730
 Empty group: 732 to 732
 Empty group: 748 to 749
 Empty group: 751 to 753
 Empty group: 755 to 757
 Empty group: 761 to 761
 Empty group: 763 to 763
 Empty group: 765 to 765
 Empty group: 767 to 769
 Empty group: 772 to 774
 Empty group: 776 to 777
 Empty group: 779 to 779
 Empty group: 782 to 782
 Empty group: 785 to 785
 Empty group: 791 to 792
 Empty group: 795 to 795
 Empty group: 800 to 800
 Empty group: 802 to 804
 Empty group: 806 to 806
 Empty group: 809 to 809
 Empty group: 813 to 814
 Empty group: 819 to 823
 Empty group: 826 to 826
 Empty group: 829 to 829
 Empty group: 831 to 833
 Empty group: 836 to 836
 Empty group: 838 to 838
 Empty group: 840 to 841
 Empty group: 843 to 846
 Empty group: 849 to 849
 Empty group: 851 to 851
 Empty group: 853 to 853
 Empty group: 856 to 856
 Empty group: 860 to 861
 Empty group: 864 to 864
 Empty group: 866 to 866
 Empty group: 870 to 871
 Empty group: 877 to 880
 Empty group: 885 to 886
 Empty group: 888 to 889
 Empty group: 892 to 893
 Empty group: 895 to 896
 Empty group: 898 to 898
 Empty group: 905 to 905
 Empty group: 912 to 913
 Empty group: 916 to 916
 Empty group: 918 to 920
 Empty group: 926 to 932
 Empty group: 934 to 935
 Empty group: 937 to 937
 Empty group: 939 to 939
 Empty group: 941 to 941
 Empty group: 944 to 945
 Empty group: 947 to 949
 Empty group: 951 to 952
 Empty group: 954 to 955
 Empty group: 958 to 958
 Empty group: 960 to 966
 Empty group: 968 to 970
 Empty group: 972 to 972
 Empty group: 977 to 977
 Empty group: 980 to 980
 Empty group: 983 to 987
 Empty group: 989 to 989
 Empty group: 991 to 991
 Empty group: 994 to 996
 Empty group: 998 to 999
 Empty group: 1002 to 1005
 Empty group: 1007 to 1007
 Empty group: 1009 to 1017
 Empty group: 1019 to 1019
 Empty group: 1024 to 1024
 Empty group: 1028 to 1029
 Empty group: 1035 to 1038
 Empty group: 1040 to 1041
 Empty group: 1043 to 1043
Namespace: RJ
 Empty group: 0 to 11345
 Empty group: 11347 to 14534
 Empty group: 14536 to 19620
 Empty group: 19622 to 47468
 Empty group: 47470 to 53634
 Empty group: 53636 to 54622
 Empty group: 54624 to 56459
 Empty group: 56461 to 56468
 Empty group: 56470 to 56845
 Empty group: 56847 to 57337
 Empty group: 57339 to 58918
 Empty group: 58920 to 60362
 Empty group: 60364 to 60700
 Empty group: 60702 to 61231
 Empty group: 61233 to 62070
 Empty group: 62072 to 62187
 Empty group: 62189 to 62343
 Empty group: 62345 to 62508
 Empty group: 62510 to 63102
 Empty group: 63104 to 63261
 Empty group: 63263 to 63385
 Empty group: 63387 to 63438
 Empty group: 63440 to 63995
 Empty group: 63997 to 64135
 Empty group: 64137 to 65453
 Empty group: 65455 to 65500
 Empty group: 65502 to 65585
 Empty group: 65587 to 65876
 Empty group: 65878 to 66692
 Empty group: 66694 to 67275
 Empty group: 67277 to 67315
 Empty group: 67317 to 67861
 Empty group: 67863 to 68261
 Empty group: 68263 to 68650
 Empty group: 68652 to 69167
 Empty group: 69169 to 69348
 Empty group: 69350 to 69491
 Empty group: 69493 to 69695
 Empty group: 69697 to 69849
 Empty group: 69851 to 70054
 Empty group: 70056 to 70454
 Empty group: 70456 to 70461
 Empty group: 70463 to 70711
 Empty group: 70713 to 70968
 Empty group: 70970 to 71505
 Empty group: 71507 to 72221
 Empty group: 72223 to 72727
 Empty group: 72729 to 72795
 Empty group: 72797 to 73457
 Empty group: 73459 to 74139
 Empty group: 74141 to 74199
 Empty group: 74201 to 74762
 Empty group: 74764 to 75021
 Empty group: 75023 to 75100
 Empty group: 75102 to 75257
 Empty group: 75259 to 75557
 Empty group: 75559 to 75734
 Empty group: 75736 to 75964
 Empty group: 75966 to 76314
 Empty group: 76316 to 76321
 Empty group: 76323 to 77055
 Empty group: 77057 to 77774
 Empty group: 77776 to 78315
 Empty group: 78317 to 78665
 Empty group: 78667 to 78684
 Empty group: 78686 to 78850
 Empty group: 78852 to 79226
 Empty group: 79228 to 79310
 Empty group: 79312 to 79346
 Empty group: 79348 to 79448
 Empty group: 79450 to 79937
 Empty group: 79939 to 80021
 Empty group: 80023 to 80040
 Empty group: 80042 to 80144
 Empty group: 80146 to 80314
 Empty group: 80316 to 80454
 Empty group: 80456 to 80477
 Empty group: 80480 to 80778
 Empty group: 80780 to 81368
 Empty group: 81370 to 81378
 Empty group: 81380 to 81718
 Empty group: 81720 to 82543
 Empty group: 82545 to 83046
 Empty group: 83048 to 83308
 Empty group: 83310 to 83537
 Empty group: 83539 to 83623
 Empty group: 83625 to 84885
 Empty group: 84887 to 84935
 Empty group: 84937 to 85559
 Empty group: 85561 to 86115
 Empty group: 86117 to 86152
 Empty group: 86154 to 86187
 Empty group: 86189 to 86399
 Empty group: 86401 to 86556
 Empty group: 86558 to 86784
 Empty group: 86786 to 86942
 Empty group: 86944 to 86984
 Empty group: 86986 to 87895
 Empty group: 87897 to 87916
 Empty group: 87918 to 88485
 Empty group: 88487 to 88893
 Empty group: 88895 to 88902
 Empty group: 88904 to 89618
 Empty group: 89620 to 89961
 Empty group: 89963 to 90025
 Empty group: 90027 to 90442
 Empty group: 90444 to 91059
 Empty group: 91061 to 91102
 Empty group: 91104 to 91212
 Empty group: 91214 to 91303
 Empty group: 91305 to 91368
 Empty group: 91370 to 91872
 Empty group: 91874 to 92076
 Empty group: 92078 to 92652
 Empty group: 92654 to 93265
 Empty group: 93267 to 93298
 Empty group: 93300 to 93308
 Empty group: 93310 to 93379
 Empty group: 93381 to 94067
 Empty group: 94069 to 94188
 Empty group: 94190 to 94278
 Empty group: 94280 to 94357
 Empty group: 94359 to 94629
 Empty group: 94631 to 94941
 Empty group: 94943 to 95264
 Empty group: 95266 to 95468
 Empty group: 95471 to 96157
 Empty group: 96159 to 96378
 Empty group: 96380 to 96638
 Empty group: 96640 to 96972
 Empty group: 96974 to 97425
 Empty group: 97427 to 97454
 Empty group: 97456 to 97727
 Empty group: 97729 to 97782
 Empty group: 97784 to 98183
 Empty group: 98185 to 98394
 Empty group: 98396 to 98403
 Empty group: 98405 to 98571
 Empty group: 98573 to 98742
 Empty group: 98744 to 98778
 Empty group: 98780 to 98918
 Empty group: 98920 to 98989
 Empty group: 98991 to 99242
 Empty group: 99244 to 99284
 Empty group: 99286 to 99325
 Empty group: 99327 to 99447
 Empty group: 99449 to 99468
 Empty group: 99470 to 99496
 Empty group: 99498 to 99511
 Empty group: 99513 to 99573
 Empty group: 99575 to 99647
 Empty group: 99649 to 99719
 Empty group: 99721 to 99916
 Empty group: 99918 to 99928
 Empty group: 99930 to 99963
 Empty group: 99965 to 100009
 Empty group: 100011 to 100186
 Empty group: 100188 to 100611
 Empty group: 100613 to 100622
 Empty group: 100624 to 100930
 Empty group: 100932 to 101172
 Empty group: 101174 to 101340
 Empty group: 101342 to 101712
 Empty group: 101714 to 101960
 Empty group: 101962 to 102044
 Empty group: 102046 to 102109
 Empty group: 102111 to 102310
 Empty group: 102312 to 102331
 Empty group: 102333 to 102567
 Empty group: 102569 to 102789
 Empty group: 102791 to 103117
 Empty group: 103119 to 103393
 Empty group: 103395 to 103425
 Empty group: 103427 to 103623
 Empty group: 103625 to 103679
 Empty group: 103681 to 103684
 Empty group: 103686 to 104010
 Empty group: 104012 to 104035
 Empty group: 104037 to 104332
 Empty group: 104334 to 104780
 Empty group: 104782 to 104798
 Empty group: 104800 to 104977
 Empty group: 104979 to 105010
 Empty group: 105012 to 105761
 Empty group: 105763 to 105814
 Empty group: 105816 to 106051
 Empty group: 106053 to 106180
 Empty group: 106182 to 106472
 Empty group: 106474 to 106653
 Empty group: 106655 to 106672
 Empty group: 106674 to 106961
 Empty group: 106963 to 107171
 Empty group: 107173 to 107504
 Empty group: 107506 to 107560
 Empty group: 107562 to 107845
 Empty group: 107847 to 108122
 Empty group: 108124 to 108415
 Empty group: 108417 to 108492
 Empty group: 108494 to 108999
 Empty group: 109001 to 109019
 Empty group: 109021 to 109096
 Empty group: 109098 to 109415
 Empty group: 109417 to 109479
 Empty group: 109481 to 109549
 Empty group: 109551 to 109602
 Empty group: 109604 to 109627
 Empty group: 109629 to 109629
 Empty group: 109631 to 110009
 Empty group: 110011 to 110028
 Empty group: 110030 to 110070
 Empty group: 110072 to 110208
 Empty group: 110210 to 110229
 Empty group: 110231 to 110287
 Empty group: 110289 to 110391
 Empty group: 110393 to 110770
 Empty group: 110772 to 111294
 Empty group: 111296 to 111432
 Empty group: 111434 to 111522
 Empty group: 111524 to 111590
 Empty group: 111592 to 111654
 Empty group: 111656 to 111768
 Empty group: 111770 to 111832
 Empty group: 111834 to 112144
 Empty group: 112146 to 112153
 Empty group: 112155 to 112347
 Empty group: 112349 to 112667
 Empty group: 112669 to 112812
 Empty group: 112814 to 112903
 Empty group: 112905 to 113027
 Empty group: 113029 to 113548
 Empty group: 113550 to 113907
 Empty group: 113909 to 113955
 Empty group: 113957 to 114032
 Empty group: 114034 to 114112
 Empty group: 114114 to 114222
 Empty group: 114224 to 114277
 Empty group: 114279 to 114351
 Empty group: 114353 to 114394
 Empty group: 114396 to 114472
 Empty group: 114474 to 114610
 Empty group: 114612 to 114756
 Empty group: 114758 to 114777
 Empty group: 114779 to 115170
 Empty group: 115172 to 115331
 Empty group: 115333 to 115497
 Empty group: 115499 to 116050
 Empty group: 116052 to 116371
 Empty group: 116373 to 116670
 Empty group: 116672 to 116731
 Empty group: 116733 to 116775
 Empty group: 116777 to 117253
 Empty group: 117255 to 117259
 Empty group: 117261 to 117530
 Empty group: 117532 to 117715
 Empty group: 117717 to 117883
 Empty group: 117885 to 118137
 Empty group: 118139 to 118314
 Empty group: 118316 to 118345
 Empty group: 118347 to 118383
 Empty group: 118385 to 118485
 Empty group: 118487 to 118614
 Empty group: 118616 to 118664
 Empty group: 118666 to 119202
 Empty group: 119204 to 120037
 Empty group: 120039 to 121104
 Empty group: 121106 to 121150
 Empty group: 121152 to 121191
 Empty group: 121193 to 121520
 Empty group: 121522 to 121646
 Empty group: 121648 to 121852
 Empty group: 121854 to 121907
 Empty group: 121909 to 122057
 Empty group: 122059 to 122103
 Empty group: 122105 to 122193
 Empty group: 122195 to 122196
 Empty group: 122199 to 122306
 Empty group: 122310 to 122313
 Empty group: 122315 to 122317
 Empty group: 122321 to 122321
 Empty group: 122323 to 122323
 Empty group: 122327 to 122458
 Empty group: 122460 to 122460
 Empty group: 122462 to 122502
 Empty group: 122504 to 122512
 Empty group: 122514 to 122514
 Empty group: 122516 to 122608
 Empty group: 122610 to 122612
 Empty group: 122614 to 122621
 Empty group: 122623 to 122793
 Empty group: 122795 to 122938
 Empty group: 122940 to 122950
 Empty group: 122952 to 122978
 Empty group: 122980 to 123097
 Empty group: 123099 to 123157
 Empty group: 123159 to 123219
 Empty group: 123221 to 123444
 Empty group: 123446 to 123449
 Empty group: 123451 to 123577
 Empty group: 123579 to 123699
 Empty group: 123701 to 123727
 Empty group: 123729 to 123764
 Empty group: 123766 to 123797
 Empty group: 123799 to 123877
 Empty group: 123879 to 123966
 Empty group: 123968 to 123978
 Empty group: 123980 to 124086
 Empty group: 124088 to 124096
 Empty group: 124098 to 124128
 Empty group: 124130 to 124236
 Empty group: 124238 to 124398
 Empty group: 124400 to 124453
 Empty group: 124455 to 124463
 Empty group: 124465 to 124492
 Empty group: 124494 to 124674
 Empty group: 124676 to 124702
 Empty group: 124704 to 124934
 Empty group: 124936 to 124969
 Empty group: 124971 to 125129
 Empty group: 125131 to 125185
 Empty group: 125187 to 125257
 Empty group: 125259 to 125272
 Empty group: 125274 to 125416
 Empty group: 125418 to 125586
 Empty group: 125588 to 125588
 Empty group: 125590 to 125629
 Empty group: 125631 to 125932
 Empty group: 125934 to 125987
 Empty group: 125989 to 126089
 Empty group: 126091 to 126219
 Empty group: 126221 to 126323
 Empty group: 126325 to 126346
 Empty group: 126348 to 126660
 Empty group: 126662 to 126774
 Empty group: 126776 to 126961
 Empty group: 126963 to 127774
 Empty group: 127776 to 127843
 Empty group: 127845 to 127924
 Empty group: 127926 to 128209
 Empty group: 128211 to 128301
 Empty group: 128303 to 128388
 Empty group: 128390 to 128762
 Empty group: 128764 to 128822
 Empty group: 128824 to 129677
 Empty group: 129679 to 129844
 Empty group: 129846 to 129998
 Empty group: 130000 to 130003
 Empty group: 130005 to 130237
 Empty group: 130239 to 130872
 Empty group: 130874 to 131170
 Empty group: 131172 to 131281
 Empty group: 131283 to 131655
 Empty group: 131657 to 131683
 Empty group: 131685 to 131749
 Empty group: 131751 to 131790
 Empty group: 131792 to 131848
 Empty group: 131850 to 132692
 Empty group: 132694 to 132874
 Empty group: 132876 to 133362
 Empty group: 133366 to 133563
 Empty group: 133565 to 133758
 Empty group: 133760 to 134141
 Empty group: 134143 to 134285
 Empty group: 134287 to 134606
 Empty group: 134608 to 134657
 Empty group: 134659 to 134687
 Empty group: 134689 to 135594
 Empty group: 135596 to 135779
 Empty group: 135781 to 136315
 Empty group: 136317 to 136483
 Empty group: 136485 to 136781
 Empty group: 136783 to 136982
 Empty group: 136984 to 136985
 Empty group: 136987 to 137128
 Empty group: 137130 to 137267
 Empty group: 137269 to 137612
 Empty group: 137614 to 138011
 Empty group: 138013 to 138516
 Empty group: 138518 to 138581
 Empty group: 138583 to 138911
 Empty group: 138913 to 139089
 Empty group: 139091 to 139355
 Empty group: 139357 to 141108
 Empty group: 141110 to 141210
 Empty group: 141212 to 141280
 Empty group: 141282 to 141282
 Empty group: 141284 to 141574
 Empty group: 141576 to 142476
 Empty group: 142478 to 142762
 Empty group: 142764 to 143060
 Empty group: 143062 to 143101
 Empty group: 143103 to 143128
 Empty group: 143130 to 143245
 Empty group: 143247 to 143247
 Empty group: 143249 to 143311
 Empty group: 143313 to 143626
 Empty group: 143628 to 143769
 Empty group: 143771 to 143902
 Empty group: 143904 to 144099
 Empty group: 144101 to 144237
 Empty group: 144239 to 144297
 Empty group: 144299 to 144340
 Empty group: 144342 to 144342
 Empty group: 144344 to 144383
 Empty group: 144385 to 144465
 Empty group: 144467 to 144701
 Empty group: 144703 to 144746
 Empty group: 144748 to 144901
 Empty group: 144903 to 145035
 Empty group: 145037 to 145138
 Empty group: 145140 to 145174
 Empty group: 145176 to 145258
 Empty group: 145260 to 145271
 Empty group: 145273 to 145303
 Empty group: 145305 to 145744
 Empty group: 145746 to 146040
 Empty group: 146042 to 146213
 Empty group: 146215 to 146530
 Empty group: 146532 to 146819
 Empty group: 146821 to 147051
 Empty group: 147053 to 147065
 Empty group: 147067 to 147883
 Empty group: 147885 to 147979
 Empty group: 147981 to 148156
 Empty group: 148158 to 148319
 Empty group: 148321 to 148366
 Empty group: 148368 to 148541
 Empty group: 148543 to 148761
 Empty group: 148763 to 148961
 Empty group: 148963 to 149222
 Empty group: 149224 to 149330
 Empty group: 149332 to 150068
 Empty group: 150070 to 150238
 Empty group: 150240 to 150277
 Empty group: 150279 to 150313
 Empty group: 150315 to 150848
 Empty group: 150850 to 151154
 Empty group: 151156 to 151440
 Empty group: 151442 to 151449
 Empty group: 151451 to 151489
 Empty group: 151491 to 151609
 Empty group: 151611 to 151965
 Empty group: 151967 to 151970
 Empty group: 151972 to 152503
 Empty group: 152505 to 152505
 Empty group: 152507 to 152507
 Empty group: 152509 to 152577
 Empty group: 152579 to 153086
 Empty group: 153088 to 153207
 Empty group: 153209 to 153700
 Empty group: 153702 to 154325
 Empty group: 154327 to 154480
 Empty group: 154482 to 155473
 Empty group: 155475 to 155488
 Empty group: 155490 to 155733
 Empty group: 155735 to 155850
 Empty group: 155852 to 155939
 Empty group: 155941 to 156079
 Empty group: 156081 to 156255
 Empty group: 156257 to 156377
 Empty group: 156379 to 156420
 Empty group: 156422 to 156888
 Empty group: 156890 to 156891
 Empty group: 156893 to 156909
 Empty group: 156911 to 157394
 Empty group: 157396 to 158366
 Empty group: 158368 to 158416
 Empty group: 158418 to 158643
 Empty group: 158645 to 158808
 Empty group: 158810 to 159049
 Empty group: 159051 to 159127
 Empty group: 159129 to 159254
 Empty group: 159256 to 159681
 Empty group: 159683 to 160023
 Empty group: 160025 to 160391
 Empty group: 160393 to 160916
 Empty group: 160918 to 161493
 Empty group: 161495 to 161586
 Empty group: 161588 to 162404
 Empty group: 162406 to 162787
 Empty group: 162789 to 162980
 Empty group: 162982 to 163038
 Empty group: 163040 to 163494
 Empty group: 163496 to 163589
 Empty group: 163591 to 163821
 Empty group: 163823 to 164190
 Empty group: 164192 to 164357
 Empty group: 164359 to 164633
 Empty group: 164635 to 164654
 Empty group: 164656 to 165030
 Empty group: 165032 to 165032
 Empty group: 165034 to 165601
 Empty group: 165603 to 165728
 Empty group: 165730 to 166296
 Empty group: 166298 to 166314
 Empty group: 166316 to 166524
 Empty group: 166526 to 166733
 Empty group: 166735 to 167012
 Empty group: 167014 to 167173
 Empty group: 167175 to 167391
 Empty group: 167393 to 167660
 Empty group: 167662 to 167725
 Empty group: 167727 to 168848
 Empty group: 168850 to 170017
 Empty group: 170019 to 170027
 Empty group: 170029 to 170452
 Empty group: 170454 to 170891
 Empty group: 170893 to 171668
 Empty group: 171670 to 171766
 Empty group: 171768 to 172033
 Empty group: 172035 to 172184
 Empty group: 172186 to 172558
 Empty group: 172560 to 172913
 Empty group: 172915 to 173095
 Empty group: 173097 to 173550
 Empty group: 173552 to 173820
 Empty group: 173822 to 173989
 Empty group: 173991 to 174020
 Empty group: 174022 to 174286
 Empty group: 174288 to 174394
 Empty group: 174396 to 174653
 Empty group: 174655 to 174684
 Empty group: 174686 to 174758
 Empty group: 174760 to 175179
 Empty group: 175181 to 175187
 Empty group: 175189 to 175605
 Empty group: 175607 to 175883
 Empty group: 175885 to 176057
 Empty group: 176059 to 176311
 Empty group: 176313 to 176401
 Empty group: 176403 to 178195
 Empty group: 178197 to 178480
 Empty group: 178482 to 178943
 Empty group: 178945 to 179228
 Empty group: 179230 to 179624
 Empty group: 179626 to 180185
 Empty group: 180189 to 180907
 Empty group: 180909 to 181111
 Empty group: 181113 to 181494
 Empty group: 181496 to 181622
 Empty group: 181624 to 181899
 Empty group: 181901 to 181964
 Empty group: 181966 to 182234
 Empty group: 182236 to 216178
Namespace: has
Namespace: RK
Namespace: SB
 Empty group: 0 to 0
Namespace: SC
 Empty group: 0 to 0
 Empty group: 2 to 8
 Empty group: 10 to 20
Namespace: SH
Namespace: SI
 Empty group: 0 to 54
 Empty group: 56 to 85
 Empty group: 87 to 159
 Empty group: 161 to 164
 Empty group: 166 to 187
 Empty group: 189 to 198
 Empty group: 200 to 201
 Empty group: 203 to 229
 Empty group: 231 to 244
 Empty group: 246 to 261
Namespace: SK
 Empty group: 0 to 9
Namespace: SM
 Empty group: 0 to 89
 Empty group: 91 to 307
 Empty group: 309 to 316
 Empty group: 318 to 350
 Empty group: 352 to 376
 Empty group: 378 to 394
 Empty group: 396 to 422
 Empty group: 424 to 441
 Empty group: 443 to 443
 Empty group: 445 to 451
Namespace: SN
 Empty group: 0 to 9
 Empty group: 11 to 19
 Empty group: 21 to 39
Namespace: ST
 Empty group: 0 to 10
 Empty group: 16 to 19
 Empty group: 22 to 23
